rawgateway,1593856460383,-54
rawgateway,1593856460222,-60
rawgateway,1593856460067,-59
rawgateway,1593856459985,-60
rawgateway,1593856459904,-55
rawgateway,1593856459752,-54
rawgateway,1593856459676,-59
rawgateway,1593856459515,-54
rawgateway,1593856459433,-59
rawgateway,1593856459265,-60
rawgateway,1593856459191,-58
rawgateway,1593856459189,-55
rawgateway,1593856459112,-61
rawgateway,1593856459028,-59
rawgateway,1593856458954,-59
rawgateway,1593856458874,-59
rawgateway,1593856458792,-55
rawgateway,1593856458713,-59
rawgateway,1593856458634,-60
rawgateway,1593856458553,-55
rawgateway,1593856458474,-59
rawgateway,1593856458314,-54
rawgateway,1593856458231,-58
rawgateway,1593856458229,-55
rawgateway,1593856458068,-60
rawgateway,1593856457985,-54
rawgateway,1593856457904,-59
rawgateway,1593856457826,-59
rawgateway,1593856457753,-59
rawgateway,1593856457592,-54
rawgateway,1593856457511,-58
rawgateway,1593856457509,-55
rawgateway,1593856457429,-59
rawgateway,1593856457349,-59
rawgateway,1593856457268,-55
rawgateway,1593856457189,-59
rawgateway,1593856457104,-59
rawgateway,1593856457022,-54
rawgateway,1593856456945,-60
rawgateway,1593856456863,-59
rawgateway,1593856456783,-54
rawgateway,1593856456707,-59
rawgateway,1593856456628,-59
rawgateway,1593856456554,-59
rawgateway,1593856456477,-59
rawgateway,1593856456236,-59
rawgateway,1593856456153,-54
rawgateway,1593856456076,-58
rawgateway,1593856455914,-54
rawgateway,1593856455832,-57
rawgateway,1593856455749,-59
rawgateway,1593856455664,-59
rawgateway,1593856455587,-55
rawgateway,1593856455504,-59
rawgateway,1593856455425,-60
rawgateway,1593856455343,-54
rawgateway,1593856455258,-54
rawgateway,1593856455096,-60
rawgateway,1593856455018,-55
rawgateway,1593856454857,-60
rawgateway,1593856454779,-54
rawgateway,1593856454701,-60
rawgateway,1593856454547,-58
rawgateway,1593856454383,-55
rawgateway,1593856454224,-59
rawgateway,1593856454068,-59
rawgateway,1593856453986,-60
rawgateway,1593856453908,-54
rawgateway,1593856453824,-59
rawgateway,1593856453741,-59
rawgateway,1593856453665,-54
rawgateway,1593856453584,-59
rawgateway,1593856453424,-54
rawgateway,1593856453265,-60
rawgateway,1593856453189,-54
rawgateway,1593856453111,-60
rawgateway,1593856453035,-54
rawgateway,1593856452958,-59
rawgateway,1593856452871,-59
rawgateway,1593856452789,-60
rawgateway,1593856452543,-59
rawgateway,1593856452469,-55
rawgateway,1593856452305,-60
rawgateway,1593856452223,-54
rawgateway,1593856452139,-54
rawgateway,1593856452059,-59
rawgateway,1593856451979,-60
rawgateway,1593856451904,-59
rawgateway,1593856451821,-59
rawgateway,1593856451744,-54
rawgateway,1593856451669,-59
rawgateway,1593856451591,-54
rawgateway,1593856451509,-54
rawgateway,1593856451351,-54
rawgateway,1593856451272,-59
rawgateway,1593856451189,-59
rawgateway,1593856451109,-60
rawgateway,1593856451033,-59
rawgateway,1593856450951,-59
rawgateway,1593856450875,-54
rawgateway,1593856450794,-59
rawgateway,1593856450624,-60
rawgateway,1593856450543,-55
rawgateway,1593856450459,-54
rawgateway,1593856450378,-59
rawgateway,1593856450298,-60
rawgateway,1593856450056,-59
rawgateway,1593856449978,-54
rawgateway,1593856449894,-58
rawgateway,1593856449813,-60
rawgateway,1593856449738,-54
rawgateway,1593856449575,-60
rawgateway,1593856449491,-55
rawgateway,1593856449412,-58
rawgateway,1593856449328,-59
rawgateway,1593856449245,-59
rawgateway,1593856449164,-54
rawgateway,1593856449083,-59
rawgateway,1593856448924,-54
rawgateway,1593856448847,-59
rawgateway,1593856448768,-60
rawgateway,1593856448694,-59
rawgateway,1593856448613,-60
rawgateway,1593856448536,-54
rawgateway,1593856448458,-59
rawgateway,1593856448373,-59
rawgateway,1593856448294,-54
rawgateway,1593856448212,-58
rawgateway,1593856448133,-60
rawgateway,1593856448053,-54
rawgateway,1593856447891,-60
rawgateway,1593856447809,-60
rawgateway,1593856447726,-54
rawgateway,1593856447573,-55
rawgateway,1593856447492,-59
rawgateway,1593856447328,-59
rawgateway,1593856447253,-59
rawgateway,1593856447168,-59
rawgateway,1593856447085,-59
rawgateway,1593856447009,-54
rawgateway,1593856446856,-54
rawgateway,1593856446776,-59
rawgateway,1593856446694,-59
rawgateway,1593856446613,-54
rawgateway,1593856446534,-59
rawgateway,1593856446451,-60
rawgateway,1593856446299,-59
rawgateway,1593856446223,-54
rawgateway,1593856446144,-59
rawgateway,1593856445985,-54
rawgateway,1593856445907,-59
rawgateway,1593856445736,-60
rawgateway,1593856445662,-59
rawgateway,1593856445503,-55
rawgateway,1593856445419,-54
rawgateway,1593856445338,-60
rawgateway,1593856445255,-59
rawgateway,1593856445099,-59
rawgateway,1593856445019,-59
rawgateway,1593856444943,-59
rawgateway,1593856444863,-60
rawgateway,1593856444785,-54
rawgateway,1593856444704,-60
rawgateway,1593856444623,-59
rawgateway,1593856444538,-60
rawgateway,1593856444455,-54
rawgateway,1593856444289,-59
rawgateway,1593856444209,-59
rawgateway,1593856444136,-59
rawgateway,1593856443974,-55
rawgateway,1593856443898,-59
rawgateway,1593856443816,-60
rawgateway,1593856443733,-54
rawgateway,1593856443659,-58
rawgateway,1593856443579,-59
rawgateway,1593856443419,-59
rawgateway,1593856443338,-60
rawgateway,1593856443264,-59
rawgateway,1593856443184,-60
rawgateway,1593856443103,-54
rawgateway,1593856443023,-58
rawgateway,1593856442856,-60
rawgateway,1593856442784,-59
rawgateway,1593856442704,-60
rawgateway,1593856442623,-54
rawgateway,1593856442459,-58
rawgateway,1593856442374,-60
rawgateway,1593856442291,-55
rawgateway,1593856442209,-54
rawgateway,1593856442049,-59
rawgateway,1593856441975,-59
rawgateway,1593856441895,-59
rawgateway,1593856441815,-54
rawgateway,1593856441665,-55
rawgateway,1593856441588,-59
rawgateway,1593856441503,-59
rawgateway,1593856441425,-54
rawgateway,1593856441345,-59
rawgateway,1593856441179,-60
rawgateway,1593856441104,-59
rawgateway,1593856441025,-60
rawgateway,1593856440943,-54
rawgateway,1593856440865,-59
rawgateway,1593856440783,-59
rawgateway,1593856440699,-60
rawgateway,1593856440618,-55
rawgateway,1593856440538,-59
rawgateway,1593856440453,-59
rawgateway,1593856440378,-55
rawgateway,1593856440297,-59
rawgateway,1593856440215,-60
rawgateway,1593856440058,-59
rawgateway,1593856439979,-59
rawgateway,1593856439902,-59
rawgateway,1593856439737,-59
rawgateway,1593856439664,-58
rawgateway,1593856439579,-59
rawgateway,1593856439496,-59
