rawclient     1592892943700   -55
rawclient     1592892943620   -45
rawclient     1592892943544   -56
rawclient     1592892943459   -56
rawclient     1592892943373   -60
rawclient     1592892943299   -56
rawclient     1592892943218   -56
rawclient     1592892943050   -60
rawclient     1592892942971   -42
rawclient     1592892942890   -41
rawclient     1592892942804   -58
rawclient     1592892942720   -60
rawclient     1592892942646   -56
rawclient     1592892942642   -42
rawclient     1592892942480   -60
rawclient     1592892942407   -41
rawclient     1592892942161   -56
rawclient     1592892942006   -56
rawclient     1592892942002   -58
rawclient     1592892941841   -41
rawclient     1592892941678   -56
rawclient     1592892941600   -41
rawclient     1592892941520   -58
rawclient     1592892941438   -56
rawclient     1592892941360   -57
rawclient     1592892941276   -58
rawclient     1592892941194   -57
rawclient     1592892941120   -56
rawclient     1592892941040   -60
rawclient     1592892940967   -57
rawclient     1592892940885   -45
rawclient     1592892940806   -56
rawclient     1592892940802   -58
rawclient     1592892940744   -56
rawclient     1592892940640   -56
rawclient     1592892940477   -56
rawclient     1592892940324   -45
rawclient     1592892940165   -60
rawclient     1592892940084   -56
rawclient     1592892940006   -57
rawclient     1592892939839   -58
rawclient     1592892939759   -56
rawclient     1592892939677   -57
rawclient     1592892939594   -60
rawclient     1592892939516   -42
rawclient     1592892939512   -45
rawclient     1592892939437   -55
rawclient     1592892939266   -60
rawclient     1592892939185   -56
rawclient     1592892939182   -58
rawclient     1592892939106   -56
rawclient     1592892939026   -60
rawclient     1592892938944   -56
rawclient     1592892938865   -57
rawclient     1592892938694   -60
rawclient     1592892938620   -56
rawclient     1592892938454   -60
rawclient     1592892938137   -42
rawclient     1592892938061   -55
rawclient     1592892937984   -42
rawclient     1592892937900   -56
rawclient     1592892937741   -67
rawclient     1592892937658   -43
rawclient     1592892937579   -55
rawclient     1592892937495   -60
rawclient     1592892937414   -43
rawclient     1592892937329   -56
rawclient     1592892937247   -56
rawclient     1592892937168   -58
rawclient     1592892937087   -55
rawclient     1592892936928   -58
rawclient     1592892936855   -57
rawclient     1592892936694   -57
rawclient     1592892936613   -55
rawclient     1592892936454   -42
rawclient     1592892936376   -56
rawclient     1592892936372   -56
rawclient     1592892936209   -60
rawclient     1592892936137   -56
rawclient     1592892935969   -58
rawclient     1592892935890   -56
rawclient     1592892935656   -56
rawclient     1592892935578   -58
rawclient     1592892935500   -57
rawclient     1592892935338   -45
rawclient     1592892935254   -56
rawclient     1592892934942   -41
rawclient     1592892934865   -57
rawclient     1592892934862   -58
rawclient     1592892934784   -57
rawclient     1592892934625   -56
rawclient     1592892934549   -56
rawclient     1592892934466   -58
rawclient     1592892934390   -56
rawclient     1592892934310   -58
rawclient     1592892934236   -58
rawclient     1592892934149   -56
rawclient     1592892934071   -57
rawclient     1592892933994   -57
rawclient     1592892933910   -56
rawclient     1592892933754   -56
rawclient     1592892933676   -56
rawclient     1592892933672   -56
rawclient     1592892933516   -57
rawclient     1592892933438   -55
rawclient     1592892933356   -58
rawclient     1592892933278   -56
rawclient     1592892933034   -42
rawclient     1592892933031   -60
rawclient     1592892932950   -56
rawclient     1592892932799   -43
rawclient     1592892932735   -57
rawclient     1592892932635   -45
rawclient     1592892932562   -56
rawclient     1592892932405   -42
rawclient     1592892932331   -41
rawclient     1592892932165   -41
rawclient     1592892932162   -59
rawclient     1592892932088   -55
rawclient     1592892932005   -45
rawclient     1592892931920   -58
rawclient     1592892931843   -40
rawclient     1592892931764   -60
rawclient     1592892931680   -60
rawclient     1592892931519   -58
rawclient     1592892931436   -59
rawclient     1592892931363   -40
rawclient     1592892931284   -45
rawclient     1592892931208   -58
rawclient     1592892931131   -56
rawclient     1592892931051   -45
rawclient     1592892930979   -56
rawclient     1592892930900   -59
rawclient     1592892930826   -58
rawclient     1592892930746   -46
rawclient     1592892930588   -55
rawclient     1592892930505   -45
rawclient     1592892930428   -42
rawclient     1592892930349   -55
rawclient     1592892930265   -46
rawclient     1592892930188   -56
rawclient     1592892930035   -56
rawclient     1592892929958   -40
rawclient     1592892929875   -45
rawclient     1592892929794   -56
rawclient     1592892929733   -40
rawclient     1592892929636   -58
rawclient     1592892929555   -56
rawclient     1592892929476   -58
rawclient     1592892929310   -45
rawclient     1592892929238   -40
rawclient     1592892929069   -58
rawclient     1592892928990   -56
rawclient     1592892928830   -58
rawclient     1592892928748   -56
rawclient     1592892928669   -56
rawclient     1592892928590   -58
rawclient     1592892928516   -56
rawclient     1592892928351   -58
rawclient     1592892928272   -56
rawclient     1592892928189   -56
rawclient     1592892928104   -58
rawclient     1592892928030   -56
rawclient     1592892927874   -56
rawclient     1592892927797   -56
rawclient     1592892927625   -58
rawclient     1592892927384   -60
rawclient     1592892927309   -56
rawclient     1592892927233   -41
rawclient     1592892927145   -60
rawclient     1592892927067   -56
rawclient     1592892926985   -41
rawclient     1592892926821   -58
rawclient     1592892926738   -56
rawclient     1592892926581   -60
rawclient     1592892926507   -55
rawclient     1592892926340   -45
rawclient     1592892926258   -56
rawclient     1592892926179   -56
rawclient     1592892926100   -60
rawclient     1592892925864   -58
rawclient     1592892925788   -55
rawclient     1592892925726   -58
rawclient     1592892925634   -40
rawclient     1592892925079   -58
rawclient     1592892924998   -58
rawclient     1592892924918   -56
rawclient     1592892924758   -56
rawclient     1592892924679   -56
rawclient     1592892924599   -45
rawclient     1592892924527   -56
rawclient     1592892924448   -58
rawclient     1592892924376   -55
rawclient     1592892924141   -55
rawclient     1592892924055   -59
rawclient     1592892923979   -56
rawclient     1592892923826   -56
rawclient     1592892923666   -58
rawclient     1592892923581   -58
rawclient     1592892923506   -57
rawclient     1592892923426   -58
rawclient     1592892923354   -56
rawclient     1592892923194   -56
rawclient     1592892923119   -41
rawclient     1592892922955   -56
rawclient     1592892922878   -55
rawclient     1592892922727   -58
