rawgateway    1592892943695   -55
rawgateway    1592892943622   -42
rawgateway    1592892943539   -56
rawgateway    1592892943373   -55
rawgateway    1592892943213   -55
rawgateway    1592892943132   -55
rawgateway    1592892943051   -42
rawgateway    1592892942884   -42
rawgateway    1592892942803   -55
rawgateway    1592892942721   -57
rawgateway    1592892942638   -57
rawgateway    1592892942559   -55
rawgateway    1592892942481   -57
rawgateway    1592892942401   -56
rawgateway    1592892942258   -57
rawgateway    1592892942002   -57
rawgateway    1592892941919   -56
rawgateway    1592892941841   -55
rawgateway    1592892941764   -57
rawgateway    1592892941594   -55
rawgateway    1592892941521   -57
rawgateway    1592892941354   -55
rawgateway    1592892941278   -55
rawgateway    1592892941193   -58
rawgateway    1592892941114   -42
rawgateway    1592892941042   -56
rawgateway    1592892940961   -57
rawgateway    1592892940802   -57
rawgateway    1592892940719   -56
rawgateway    1592892940634   -57
rawgateway    1592892940552   -54
rawgateway    1592892940476   -56
rawgateway    1592892940321   -58
rawgateway    1592892940253   -54
rawgateway    1592892940164   -54
rawgateway    1592892940083   -59
rawgateway    1592892940000   -56
rawgateway    1592892939919   -54
rawgateway    1592892939840   -59
rawgateway    1592892939672   -56
rawgateway    1592892939512   -57
rawgateway    1592892939431   -42
rawgateway    1592892939349   -54
rawgateway    1592892939265   -54
rawgateway    1592892939182   -56
rawgateway    1592892939100   -55
rawgateway    1592892939025   -54
rawgateway    1592892938943   -56
rawgateway    1592892938859   -55
rawgateway    1592892938538   -40
rawgateway    1592892938453   -54
rawgateway    1592892938212   -54
rawgateway    1592892938136   -57
rawgateway    1592892938055   -56
rawgateway    1592892937983   -57
rawgateway    1592892937752   -42
rawgateway    1592892937573   -42
rawgateway    1592892937494   -54
rawgateway    1592892937415   -57
rawgateway    1592892937250   -55
rawgateway    1592892937168   -42
rawgateway    1592892937086   -57
rawgateway    1592892937005   -55
rawgateway    1592892936928   -58
rawgateway    1592892936849   -57
rawgateway    1592892936774   -55
rawgateway    1592892936693   -42
rawgateway    1592892936528   -55
rawgateway    1592892936453   -57
rawgateway    1592892936368   -55
rawgateway    1592892936292   -55
rawgateway    1592892936210   -58
rawgateway    1592892936132   -56
rawgateway    1592892936051   -55
rawgateway    1592892935970   -57
rawgateway    1592892935811   -55
rawgateway    1592892935750   -57
rawgateway    1592892935650   -66
rawgateway    1592892935578   -42
rawgateway    1592892935418   -55
rawgateway    1592892935338   -58
rawgateway    1592892935255   -57
rawgateway    1592892935092   -54
rawgateway    1592892934935   -54
rawgateway    1592892934862   -42
rawgateway    1592892934779   -43
rawgateway    1592892934625   -57
rawgateway    1592892934544   -57
rawgateway    1592892934465   -55
rawgateway    1592892934304   -56
rawgateway    1592892934223   -55
rawgateway    1592892934065   -55
rawgateway    1592892933831   -55
rawgateway    1592892933755   -57
rawgateway    1592892933668   -41
rawgateway    1592892933592   -55
rawgateway    1592892933516   -58
rawgateway    1592892933433   -55
rawgateway    1592892933356   -55
rawgateway    1592892933277   -42
rawgateway    1592892933190   -55
rawgateway    1592892933109   -55
rawgateway    1592892933032   -57
rawgateway    1592892932869   -54
rawgateway    1592892932795   -56
rawgateway    1592892932713   -55
rawgateway    1592892932635   -54
rawgateway    1592892932481   -54
rawgateway    1592892932405   -57
rawgateway    1592892932325   -42
rawgateway    1592892932247   -55
rawgateway    1592892932162   -58
rawgateway    1592892932083   -55
rawgateway    1592892931921   -57
rawgateway    1592892931838   -56
rawgateway    1592892931764   -54
rawgateway    1592892931681   -57
rawgateway    1592892931514   -55
rawgateway    1592892931436   -55
rawgateway    1592892931358   -55
rawgateway    1592892931283   -54
rawgateway    1592892931125   -57
rawgateway    1592892931052   -57
rawgateway    1592892930974   -42
rawgateway    1592892930820   -42
rawgateway    1592892930762   -54
rawgateway    1592892930663   -43
rawgateway    1592892930584   -42
rawgateway    1592892930503   -54
rawgateway    1592892930265   -54
rawgateway    1592892930109   -55
rawgateway    1592892930035   -58
rawgateway    1592892929953   -54
rawgateway    1592892929875   -54
rawgateway    1592892929793   -57
rawgateway    1592892929713   -54
rawgateway    1592892929636   -54
rawgateway    1592892929555   -57
rawgateway    1592892929470   -56
rawgateway    1592892929392   -54
rawgateway    1592892929311   -57
rawgateway    1592892929242   -55
rawgateway    1592892929151   -40
rawgateway    1592892929070   -58
rawgateway    1592892928911   -54
rawgateway    1592892928907   -55
rawgateway    1592892928832   -56
rawgateway    1592892928664   -42
rawgateway    1592892928510   -55
rawgateway    1592892928433   -54
rawgateway    1592892928353   -57
rawgateway    1592892928184   -55
rawgateway    1592892928103   -55
rawgateway    1592892927952   -55
rawgateway    1592892927874   -57
rawgateway    1592892927790   -55
rawgateway    1592892927705   -56
rawgateway    1592892927625   -54
rawgateway    1592892927459   -42
rawgateway    1592892927383   -55
rawgateway    1592892927243   -55
rawgateway    1592892927144   -55
rawgateway    1592892927066   -57
rawgateway    1592892926979   -42
rawgateway    1592892926900   -54
rawgateway    1592892926825   -58
rawgateway    1592892926660   -54
rawgateway    1592892926582   -58
rawgateway    1592892926502   -42
rawgateway    1592892926420   -55
rawgateway    1592892926341   -58
rawgateway    1592892926174   -57
rawgateway    1592892926101   -59
rawgateway    1592892925941   -54
rawgateway    1592892925864   -57
rawgateway    1592892925782   -56
rawgateway    1592892925709   -59
rawgateway    1592892925630   -63
rawgateway    1592892925401   -54
rawgateway    1592892925160   -54
rawgateway    1592892925080   -57
rawgateway    1592892924913   -57
rawgateway    1592892924832   -54
rawgateway    1592892924674   -55
rawgateway    1592892924600   -57
rawgateway    1592892924522   -57
rawgateway    1592892924449   -42
rawgateway    1592892924371   -54
rawgateway    1592892924297   -40
rawgateway    1592892924055   -54
rawgateway    1592892923901   -55
rawgateway    1592892923825   -42
rawgateway    1592892923751   -55
rawgateway    1592892923747   -55
rawgateway    1592892923666   -54
rawgateway    1592892923582   -56
rawgateway    1592892923501   -55
rawgateway    1592892923426   -54
rawgateway    1592892923349   -55
rawgateway    1592892923271   -55
rawgateway    1592892923194   -58
rawgateway    1592892923114   -55
rawgateway    1592892922955   -57
rawgateway    1592892922873   -55
rawgateway    1592892922790   -55
