rawclient     1592747049114   -57
rawclient     1592747047963   -42
rawclient     1592747047918   -57
rawclient     1592747047313   -57
rawclient     1592747046762   -57
rawclient     1592747046714   -57
rawclient     1592747046670   -57
rawclient     1592747045521   -70
rawclient     1592747044961   -57
rawclient     1592747044917   -44
rawclient     1592747044362   -60
rawclient     1592747044320   -57
rawclient     1592747043760   -57
rawclient     1592747043712   -57
rawclient     1592747043162   -55
rawclient     1592747043111   -56
rawclient     1592747042469   -46
rawclient     1592747041910   -48
rawclient     1592747041358   -41
rawclient     1592747041311   -44
rawclient     1592747041268   -56
rawclient     1592747040067   -57
rawclient     1592747038957   -42
rawclient     1592747038914   -57
rawclient     1592747038319   -57
rawclient     1592747038266   -42
rawclient     1592747037709   -59
rawclient     1592747037666   -42
rawclient     1592747037110   -57
rawclient     1592747037066   -57
rawclient     1592747035912   -57
rawclient     1592747035313   -57
rawclient     1592747034664   -57
rawclient     1592747034116   -56
rawclient     1592747034064   -55
rawclient     1592747033505   -57
rawclient     1592747032910   -57
rawclient     1592747032352   -41
rawclient     1592747032305   -57
rawclient     1592747031717   -41
rawclient     1592747031664   -57
rawclient     1592747031116   -56
rawclient     1592747030507   -57
rawclient     1592747029906   -43
rawclient     1592747029862   -57
rawclient     1592747029352   -56
rawclient     1592747029309   -48
rawclient     1592747028708   -43
rawclient     1592747028109   -43
rawclient     1592747028061   -54
rawclient     1592747027504   -43
rawclient     1592747026911   -43
rawclient     1592747026353   -54
rawclient     1592747026312   -55
rawclient     1592747026260   -41
rawclient     1592747025751   -56
rawclient     1592747025708   -43
rawclient     1592747025111   -55
rawclient     1592747023905   -57
rawclient     1592747023347   -56
rawclient     1592747023259   -56
rawclient     1592747022744   -56
rawclient     1592747022110   -55
rawclient     1592747022059   -56
rawclient     1592747020910   -46
rawclient     1592747020858   -41
rawclient     1592747020345   -41
rawclient     1592747020299   -57
rawclient     1592747019708   -41
rawclient     1592747019108   -56
rawclient     1592747019057   -55
rawclient     1592747017903   -58
rawclient     1592747016698   -47
rawclient     1592747016149   -62
rawclient     1592747016108   -58
rawclient     1592747015506   -70
rawclient     1592747014954   -55
rawclient     1592747014902   -57
rawclient     1592747014855   -55
rawclient     1592747014302   -58
rawclient     1592747013700   -57
rawclient     1592747013655   -57
rawclient     1592747013139   -57
rawclient     1592747013096   -58
rawclient     1592747011296   -57
rawclient     1592747009535   -57
rawclient     1592747009453   -46
rawclient     1592747008852   -55
rawclient     1592747008299   -57
rawclient     1592747007742   -56
rawclient     1592747007699   -57
rawclient     1592747007144   -61
rawclient     1592747007099   -56
rawclient     1592747007051   -56
rawclient     1592747006494   -43
rawclient     1592747005358   -55
rawclient     1592747005297   -57
