# Gnuplot command file.
set terminal wxt # Alternatives: qt (some OSX), wxt (gives top bar menu).
set grid

set title "RT corrected mobile client RSSI using antialiased values with smaller averaging window size"

set xlabel "Time in ms since Jan 1. 1970"
set ylabel "RSSI (dBm)"
set autoscale
set key bottom right box opaque

plot 'mvavgclient.txt' u 2:3 t 'AA client' w linespoints lc 'red', 'mvavggateway.txt' u 2:3 t 'AA gateway' w linespoints lc 'blue', 'rtcorrected.txt' u 2:3 t 'RT corrected client' w linespoints lc '#00c43e', 'rawclient.txt' u 2:3 t 'raw client' w points lc 'dark-red', 'rawgateway.txt' u 2:3 t 'raw gateway' w points lc 'dark-blue'