mvavggateway  1592642363181   -59.886692569721
mvavggateway  1592642363181   -59.886692569721
mvavggateway  1592642363091   -60.453870059145
mvavggateway  1592642362911   -59.936242735634
mvavggateway  1592642362599   -58.35525645332
mvavggateway  1592642362509   -58.491063445769
mvavggateway  1592642362323   -59.750779029235
mvavggateway  1592642362193   -59.851295129739
mvavggateway  1592642362058   -60.324032333278
mvavggateway  1592642362016   -60.670437955637
mvavggateway  1592642362016   -60.670437955637
mvavggateway  1592642362016   -60.670437955637
mvavggateway  1592642361785   -60.935960112606
mvavggateway  1592642361785   -60.935960112606
mvavggateway  1592642361740   -61.30910950455
mvavggateway  1592642361468   -62.590926146801
mvavggateway  1592642361419   -60.767907107746
mvavggateway  1592642361419   -60.767907107746
mvavggateway  1592642361334   -60.990565413767
mvavggateway  1592642361207   -59.677249095316
mvavggateway  1592642361109   -61.885873928696
mvavggateway  1592642361061   -60.375081838786
mvavggateway  1592642360922   -60.12452231891
mvavggateway  1592642360876   -60.315835824833
mvavggateway  1592642360831   -60.315835824833
mvavggateway  1592642360831   -60.315835824833
mvavggateway  1592642360709   -59.580472181365
mvavggateway  1592642360709   -59.580472181365
mvavggateway  1592642360709   -59.580472181365
mvavggateway  1592642360709   -59.580472181365
mvavggateway  1592642359539   -58.60945974074
mvavggateway  1592642359539   -58.60945974074
mvavggateway  1592642359539   -58.60945974074
mvavggateway  1592642359539   -58.60945974074
mvavggateway  1592642359539   -58.60945974074
mvavggateway  1592642359539   -58.60945974074
mvavggateway  1592642359539   -58.60945974074
mvavggateway  1592642359539   -58.60945974074
mvavggateway  1592642359539   -58.60945974074
mvavggateway  1592642359539   -58.60945974074
mvavggateway  1592642359496   -59.107676436813
mvavggateway  1592642359453   -59.558741014607
mvavggateway  1592642359453   -59.558741014607
mvavggateway  1592642359233   -59.912262044324
mvavggateway  1592642359191   -59.845125904968
mvavggateway  1592642359191   -59.845125904968
mvavggateway  1592642359139   -60.318528977345
mvavggateway  1592642359102   -60.557342972157
mvavggateway  1592642358825   -60.832791604375
mvavggateway  1592642358825   -60.832791604375
mvavggateway  1592642358706   -60.931433834782
mvavggateway  1592642358706   -60.931433834782
mvavggateway  1592642358513   -60.931433834782
mvavggateway  1592642358472   -60.832791604375
mvavggateway  1592642357982   -60.832791604375
mvavggateway  1592642357936   -60.832791604375
mvavggateway  1592642357602   -60.832791604375
mvavggateway  1592642357602   -60.832791604375
mvavggateway  1592642357602   -60.832791604375
mvavggateway  1592642357553   -60.832791604375
mvavggateway  1592642357334   -60.832791604375
mvavggateway  1592642357239   -60.08631123538
mvavggateway  1592642356643   -59.904643045598
mvavggateway  1592642356643   -59.904643045598
mvavggateway  1592642356598   -59.826585208384
mvavggateway  1592642356598   -59.826585208384
mvavggateway  1592642356325   -58.22653122925
mvavggateway  1592642353034   -58.127672045843
mvavggateway  1592642353034   -58.127672045843
mvavggateway  1592642353034   -58.127672045843
mvavggateway  1592642353034   -58.127672045843
mvavggateway  1592642353034   -58.127672045843
mvavggateway  1592642353034   -58.127672045843
mvavggateway  1592642353034   -58.127672045843
mvavggateway  1592642353034   -58.127672045843
mvavggateway  1592642353034   -58.127672045843
mvavggateway  1592642353034   -58.127672045843
mvavggateway  1592642353034   -58.127672045843
mvavggateway  1592642353034   -58.127672045843
mvavggateway  1592642353034   -58.127672045843
mvavggateway  1592642353034   -58.127672045843
mvavggateway  1592642353034   -58.127672045843
mvavggateway  1592642353034   -58.127672045843
mvavggateway  1592642353034   -58.127672045843
mvavggateway  1592642353034   -58.127672045843
mvavggateway  1592642353034   -58.127672045843
mvavggateway  1592642353034   -58.127672045843
mvavggateway  1592642353034   -58.127672045843
mvavggateway  1592642353034   -58.127672045843
mvavggateway  1592642353034   -58.127672045843
mvavggateway  1592642353034   -58.127672045843
mvavggateway  1592642353034   -58.127672045843
mvavggateway  1592642353034   -58.127672045843
mvavggateway  1592642353034   -58.127672045843
mvavggateway  1592642353034   -58.127672045843
mvavggateway  1592642353034   -58.127672045843
mvavggateway  1592642353034   -58.127672045843
mvavggateway  1592642353034   -58.127672045843
mvavggateway  1592642353034   -58.127672045843
mvavggateway  1592642353034   -58.127672045843
mvavggateway  1592642353034   -58.127672045843
mvavggateway  1592642353034   -58.127672045843
mvavggateway  1592642353034   -58.127672045843
mvavggateway  1592642353034   -58.127672045843
mvavggateway  1592642353034   -58.127672045843
mvavggateway  1592642353034   -58.127672045843
mvavggateway  1592642353034   -58.127672045843
mvavggateway  1592642353034   -58.127672045843
mvavggateway  1592642353034   -58.127672045843
mvavggateway  1592642352768   -58.657710175874
mvavggateway  1592642352720   -59.746145638617
mvavggateway  1592642352639   -59.393384328606
mvavggateway  1592642352544   -60.641597293072
mvavggateway  1592642352544   -60.641597293072
mvavggateway  1592642352458   -59.554497870126
mvavggateway  1592642352058   -60.59158207532
mvavggateway  1592642352058   -60.59158207532
mvavggateway  1592642352058   -60.59158207532
mvavggateway  1592642352015   -58.759595754038
mvavggateway  1592642351935   -58.194032369105
mvavggateway  1592642351935   -58.194032369105
mvavggateway  1592642351935   -58.194032369105
mvavggateway  1592642351503   -57.994500496541
mvavggateway  1592642351503   -57.994500496541
mvavggateway  1592642351503   -57.994500496541
mvavggateway  1592642351409   -58.372940914233
mvavggateway  1592642351409   -58.372940914233
mvavggateway  1592642351152   -59.60663086288
mvavggateway  1592642351152   -59.60663086288
mvavggateway  1592642351152   -59.60663086288
mvavggateway  1592642351152   -59.60663086288
mvavggateway  1592642351021   -59.478336219583
mvavggateway  1592642350921   -59.193870456396
mvavggateway  1592642350921   -59.193870456396
mvavggateway  1592642350832   -59.193870456396
mvavggateway  1592642350750   -59.193870456396
mvavggateway  1592642350713   -59.089157165604
mvavggateway  1592642350578   -58.725454341732
mvavggateway  1592642350578   -58.725454341732
mvavggateway  1592642350530   -58.919577059765
mvavggateway  1592642350351   -58.936161352399
mvavggateway  1592642350304   -59.497160114155
mvavggateway  1592642350260   -59.612325644034
mvavggateway  1592642350170   -59.00477256229
mvavggateway  1592642350128   -59.502912848171
mvavggateway  1592642350077   -59.113476220242
mvavggateway  1592642350032   -58.41668741051
mvavggateway  1592642349939   -58.274505675644
mvavggateway  1592642349855   -58.037207460701
mvavggateway  1592642349813   -58.301904652553
mvavggateway  1592642349720   -57.776698780408
mvavggateway  1592642349673   -58.316161681797
mvavggateway  1592642349673   -58.316161681797
mvavggateway  1592642349673   -58.316161681797
mvavggateway  1592642349491   -58.247918309706
mvavggateway  1592642349391   -58.757257697005
mvavggateway  1592642349302   -60.030436251994
mvavggateway  1592642349075   -57.958803053807
mvavggateway  1592642349075   -57.958803053807
mvavggateway  1592642348984   -57.009292182108
mvavggateway  1592642348984   -57.009292182108
mvavggateway  1592642348891   -57.009292182108
mvavggateway  1592642348798   -57.009292182108
mvavggateway  1592642348624   -57.146736363697
mvavggateway  1592642348624   -57.146736363697
mvavggateway  1592642348487   -56.685812618992
mvavggateway  1592642348487   -56.685812618992
mvavggateway  1592642348487   -56.685812618992
