rtcorrected,1592892843435,-48.470160446208
rtcorrected,1592892843354,-48.451575290019
rtcorrected,1592892843276,-46.684798547085
rtcorrected,1592892843195,-47.693909165497
rtcorrected,1592892843029,-45.933834713475
rtcorrected,1592892842949,-47.695076233791
rtcorrected,1592892842784,-47.550511658227
rtcorrected,1592892842704,-48.73913920451
rtcorrected,1592892842628,-48.56838847469
rtcorrected,1592892842544,-48.555525958839
rtcorrected,1592892842467,-48.558970631652
rtcorrected,1592892842388,-46.870482489198
rtcorrected,1592892842309,-46.03439287284
rtcorrected,1592892842230,-45.578986008433
rtcorrected,1592892842157,-45.653734627257
rtcorrected,1592892842075,-45.576700666718
rtcorrected,1592892841991,-45.576700666718
rtcorrected,1592892841828,-47.092656146055
rtcorrected,1592892841751,-48.262684557953
rtcorrected,1592892841670,-48.274450764915
rtcorrected,1592892841588,-49.019668736744
rtcorrected,1592892841515,-49.070404505291
rtcorrected,1592892841356,-50.683239311378
rtcorrected,1592892841109,-50.838025636733
rtcorrected,1592892841026,-50.877917091607
rtcorrected,1592892840947,-57.78252617105
rtcorrected,1592892840867,-57.752282742135
rtcorrected,1592892840790,-57.888341259227
rtcorrected,1592892840651,-57.021612471995
rtcorrected,1592892840478,-48.85104770904
rtcorrected,1592892840405,-48.690225603891
rtcorrected,1592892840324,-48.762265773759
rtcorrected,1592892840246,-48.793266312922
rtcorrected,1592892840085,-50.495328568246
rtcorrected,1592892840008,-47.649046591102
rtcorrected,1592892839930,-46.236297139146
rtcorrected,1592892839759,-47.512141069375
rtcorrected,1592892839689,-46.095450147431
rtcorrected,1592892839527,-46.235296372176
rtcorrected,1592892839447,-45.583946102282
rtcorrected,1592892839441,-48.159009041304
rtcorrected,1592892839286,-48.240002645657
rtcorrected,1592892839211,-48.221081652564
rtcorrected,1592892839044,-48.152800359444
rtcorrected,1592892838960,-47.727852871874
rtcorrected,1592892838806,-48.931195299537
rtcorrected,1592892838556,-48.745135230163
rtcorrected,1592892838481,-47.202334848773
rtcorrected,1592892838400,-48.622956289334
rtcorrected,1592892838080,-47.062622584592
rtcorrected,1592892837917,-47.370043737999
rtcorrected,1592892837758,-43.752764339781
rtcorrected,1592892837676,-41.245809178081
rtcorrected,1592892837512,-41.296177714381
rtcorrected,1592892837351,-39.874495681777
rtcorrected,1592892837264,-40.186232406717
rtcorrected,1592892837184,-40.844045820161
rtcorrected,1592892837110,-43.005846170287
rtcorrected,1592892837029,-46.085905526976
rtcorrected,1592892836953,-46.073079426825
rtcorrected,1592892836794,-47.358512241695
rtcorrected,1592892836717,-47.981776458165
rtcorrected,1592892836557,-50.360351623115
rtcorrected,1592892836394,-51.550270521135
rtcorrected,1592892836165,-49.984375110087
rtcorrected,1592892836088,-58.112353380876
rtcorrected,1592892836004,-58.251152920021
rtcorrected,1592892835927,-59.942873282473
rtcorrected,1592892835847,-60.877784273146
rtcorrected,1592892835688,-60.877784273146
rtcorrected,1592892835606,-61.094530053932
rtcorrected,1592892835448,-60.851495782304
rtcorrected,1592892835287,-61.076080204269
rtcorrected,1592892835214,-60.784454698404
rtcorrected,1592892835046,-59.912563401841
rtcorrected,1592892834821,-56.821576496614
rtcorrected,1592892834780,-56.860929105084
rtcorrected,1592892834720,-57.013896916155
rtcorrected,1592892834579,-55.704750212359
rtcorrected,1592892834500,-55.633123949003
rtcorrected,1592892834418,-50.388490634755
rtcorrected,1592892834338,-50.30069205263
rtcorrected,1592892834177,-51.198105978057
rtcorrected,1592892834097,-47.959853974721
rtcorrected,1592892834017,-47.959255853064
rtcorrected,1592892833938,-49.906891636924
rtcorrected,1592892833780,-51.083801076052
rtcorrected,1592892833698,-51.10709796843
rtcorrected,1592892833614,-51.511264142522
rtcorrected,1592892833537,-51.531541778966
rtcorrected,1592892833533,-51.631027159758
rtcorrected,1592892833449,-51.495425573267
rtcorrected,1592892833370,-48.786238965383
rtcorrected,1592892833289,-48.786238965383
rtcorrected,1592892833145,-53.959971065404
rtcorrected,1592892833045,-51.990222867359
rtcorrected,1592892832960,-51.957666513247
rtcorrected,1592892832879,-51.984980843794
rtcorrected,1592892832800,-53.3785341294
rtcorrected,1592892832720,-53.457753476683
rtcorrected,1592892832566,-53.399509056701
rtcorrected,1592892832485,-53.343372240001
rtcorrected,1592892832321,-54.278513344542
rtcorrected,1592892832247,-54.271234847916
rtcorrected,1592892832166,-54.204573095241
rtcorrected,1592892832096,-54.204573095241
rtcorrected,1592892832092,-58.732707028714
rtcorrected,1592892832010,-58.715824670725
rtcorrected,1592892831926,-57.214184422384
rtcorrected,1592892831699,-53.388194972553
rtcorrected,1592892831617,-49.97549776756
rtcorrected,1592892831612,-50.027016816628
rtcorrected,1592892831529,-50.150686172544
rtcorrected,1592892831448,-50.120305811678
rtcorrected,1592892831376,-41.640988701599
rtcorrected,1592892831298,-48.402948339853
rtcorrected,1592892831147,-48.402948339853
rtcorrected,1592892831058,-50.98351109517
rtcorrected,1592892830974,-51.026759705782
rtcorrected,1592892830899,-50.953829064124
rtcorrected,1592892830728,-50.978426022431
rtcorrected,1592892830657,-52.090612257927
rtcorrected,1592892830652,-52.090612257927
rtcorrected,1592892830574,-52.576149917129
rtcorrected,1592892830421,-53.828314647263
rtcorrected,1592892830339,-55.590939327942
rtcorrected,1592892830262,-55.448747354904
rtcorrected,1592892830178,-55.47114843883
rtcorrected,1592892830094,-55.518396186165
rtcorrected,1592892830018,-52.770572427079
rtcorrected,1592892829861,-52.874761329233
rtcorrected,1592892829787,-52.874761329233
rtcorrected,1592892829782,-52.874761329233
rtcorrected,1592892829705,-55.176791136857
rtcorrected,1592892829640,-55.121149095631
rtcorrected,1592892829551,-54.953489057575
rtcorrected,1592892829464,-58.00924749562
rtcorrected,1592892829384,-54.40957759003
rtcorrected,1592892829307,-54.411647458542
rtcorrected,1592892829230,-54.281698762147
rtcorrected,1592892829149,-51.11040252611
rtcorrected,1592892829067,-51.176768969104
rtcorrected,1592892828984,-47.913335598005
rtcorrected,1592892828908,-45.490122093304
rtcorrected,1592892828832,-47.788427459687
rtcorrected,1592892828750,-47.788427459687
rtcorrected,1592892828505,-48.060202428985
rtcorrected,1592892828424,-48.065302233818
rtcorrected,1592892828351,-47.920826111584
rtcorrected,1592892828265,-48.07113536747
rtcorrected,1592892828186,-47.952299988812
rtcorrected,1592892828104,-49.249395435559
rtcorrected,1592892827942,-49.316989645384
rtcorrected,1592892827863,-50.189227500563
rtcorrected,1592892827699,-52.842788494962
rtcorrected,1592892827641,-51.256862222473
rtcorrected,1592892827547,-51.365806457622
rtcorrected,1592892827465,-49.810430449774
rtcorrected,1592892827386,-49.175256604125
rtcorrected,1592892827229,-49.885004062266
rtcorrected,1592892827069,-46.852360902287
rtcorrected,1592892826987,-46.989830649933
rtcorrected,1592892826909,-44.692925582467
rtcorrected,1592892826825,-46.818181370238
rtcorrected,1592892826750,-46.846693605879
rtcorrected,1592892826664,-48.014923296842
rtcorrected,1592892826584,-48.026765653985
rtcorrected,1592892826505,-46.501937513471
rtcorrected,1592892826428,-49.233882565896
rtcorrected,1592892826344,-49.122347923914
rtcorrected,1592892826262,-52.549983061084
rtcorrected,1592892826179,-52.455835214193
rtcorrected,1592892826098,-52.32551588229
rtcorrected,1592892825938,-53.850662512226
rtcorrected,1592892825774,-52.365052172403
rtcorrected,1592892825699,-52.291695686757
rtcorrected,1592892825632,-54.503676132585
rtcorrected,1592892825449,-53.708401266017
rtcorrected,1592892825369,-53.708401266017
rtcorrected,1592892825303,-53.816202144575
rtcorrected,1592892825140,-53.699569089096
rtcorrected,1592892825049,-53.71223489591
rtcorrected,1592892824799,-53.846753087517
rtcorrected,1592892824722,-55.043801662978
rtcorrected,1592892824565,-53.927891429797
rtcorrected,1592892824400,-53.008753767118
rtcorrected,1592892824324,-52.400883312115
rtcorrected,1592892824239,-52.348783249226
rtcorrected,1592892824154,-53.480925463536
rtcorrected,1592892824078,-54.36923907199
rtcorrected,1592892823999,-54.474983318448
rtcorrected,1592892823915,-56.357728318339
rtcorrected,1592892823591,-55.347650746327
rtcorrected,1592892823350,-55.388202449489
rtcorrected,1592892823276,-54.234677793101
rtcorrected,1592892823192,-53.072066196264
rtcorrected,1592892823032,-53.068670220461
rtcorrected,1592892822952,-54.423465919842
rtcorrected,1592892822871,-41.908367863109
rtcorrected,1592892822719,-42.18967388601
rtcorrected,1592892822636,-41.243962801589
