mvavggateway  1592640104652   -59.998540700017
mvavggateway  1592640104157   -59.773746823505
mvavggateway  1592640104007   -60.759625193649
mvavggateway  1592640104007   -60.759625193649
mvavggateway  1592640103948   -60.759625193649
mvavggateway  1592640103948   -60.759625193649
mvavggateway  1592640103407   -60.497018996167
mvavggateway  1592640103038   -59.070817682005
mvavggateway  1592640103038   -59.070817682005
mvavggateway  1592640103038   -59.070817682005
mvavggateway  1592640102945   -58.971633524565
mvavggateway  1592640102945   -58.971633524565
mvavggateway  1592640102856   -58.445352467754
mvavggateway  1592640102856   -58.445352467754
mvavggateway  1592640102376   -58.858058965305
mvavggateway  1592640102376   -58.858058965305
mvavggateway  1592640102376   -58.858058965305
mvavggateway  1592640102376   -58.858058965305
mvavggateway  1592640102376   -58.858058965305
mvavggateway  1592640102376   -58.858058965305
mvavggateway  1592640101998   -58.830012958547
mvavggateway  1592640101775   -59.813575205799
mvavggateway  1592640101728   -60.649616924205
mvavggateway  1592640101453   -61.611029838101
mvavggateway  1592640101356   -61.782068802488
mvavggateway  1592640101356   -61.782068802488
mvavggateway  1592640101356   -61.782068802488
mvavggateway  1592640101170   -61.573911532978
mvavggateway  1592640101084   -61.794866025005
mvavggateway  1592640101004   -62.578256507553
mvavggateway  1592640100637   -62.336911272603
mvavggateway  1592640100637   -62.336911272603
mvavggateway  1592640100505   -62.833795176301
mvavggateway  1592640100505   -62.833795176301
mvavggateway  1592640100505   -62.833795176301
mvavggateway  1592640100046   -63.385864615587
mvavggateway  1592640100046   -63.385864615587
mvavggateway  1592640100046   -63.385864615587
mvavggateway  1592640099959   -64.003227107353
mvavggateway  1592640099606   -64.804334748035
mvavggateway  1592640099345   -64.434298914426
mvavggateway  1592640099345   -64.434298914426
mvavggateway  1592640099025   -63.320068479073
mvavggateway  1592640098974   -63.165987783986
mvavggateway  1592640098797   -62.045366973319
mvavggateway  1592640098797   -62.045366973319
mvavggateway  1592640098754   -61.510607445983
mvavggateway  1592640098624   -61.556625251567
mvavggateway  1592640098624   -61.556625251567
mvavggateway  1592640098526   -61.095614363181
mvavggateway  1592640098437   -60.706823876286
mvavggateway  1592640098266   -60.646948058385
mvavggateway  1592640098266   -60.646948058385
mvavggateway  1592640098046   -60.966791348143
mvavggateway  1592640097906   -60.808911203642
mvavggateway  1592640097906   -60.808911203642
mvavggateway  1592640097687   -60.808911203642
mvavggateway  1592640097687   -60.808911203642
mvavggateway  1592640097595   -61.118195627985
mvavggateway  1592640097595   -61.118195627985
mvavggateway  1592640097327   -61.437037174143
mvavggateway  1592640097327   -61.437037174143
mvavggateway  1592640097145   -61.392262815066
mvavggateway  1592640097057   -61.309568112311
mvavggateway  1592640096967   -60.927216412697
mvavggateway  1592640096967   -60.927216412697
mvavggateway  1592640096607   -61.177417955905
mvavggateway  1592640096426   -60.768734659364
mvavggateway  1592640096207   -60.153551465005
mvavggateway  1592640096155   -60.489581025144
mvavggateway  1592640096024   -60.613264117424
mvavggateway  1592640095757   -60.867525585126
mvavggateway  1592640095757   -60.867525585126
mvavggateway  1592640095757   -60.867525585126
mvavggateway  1592640095617   -60.867525585126
mvavggateway  1592640095617   -60.867525585126
mvavggateway  1592640095617   -60.867525585126
mvavggateway  1592640095617   -60.867525585126
mvavggateway  1592640095366   -60.867525585126
mvavggateway  1592640095366   -60.867525585126
mvavggateway  1592640095317   -60.255072038284
mvavggateway  1592640095230   -59.362062778661
mvavggateway  1592640095131   -58.521089170675
mvavggateway  1592640095131   -58.521089170675
mvavggateway  1592640094767   -57.755442566645
mvavggateway  1592640094767   -57.755442566645
mvavggateway  1592640094677   -57.755442566645
mvavggateway  1592640094416   -57.647398960863
mvavggateway  1592640094416   -57.647398960863
mvavggateway  1592640094319   -57.557333551083
mvavggateway  1592640094275   -57.04918684875
mvavggateway  1592640094186   -56.941826797157
mvavggateway  1592640094186   -56.941826797157
mvavggateway  1592640094186   -56.941826797157
mvavggateway  1592640094049   -57.036190092117
mvavggateway  1592640094012   -57.01037380057
mvavggateway  1592640093606   -59.123858964762
mvavggateway  1592640093606   -59.123858964762
mvavggateway  1592640093523   -60.89450329859
mvavggateway  1592640093147   -58.129512703605
mvavggateway  1592640093147   -58.129512703605
mvavggateway  1592640092912   -57.065923569392
mvavggateway  1592640092775   -56.052958986839
mvavggateway  1592640092775   -56.052958986839
mvavggateway  1592640092775   -56.052958986839
mvavggateway  1592640092647   -55.992951853119
mvavggateway  1592640092493   -54.995850182521
mvavggateway  1592640092292   -54.730270516961
mvavggateway  1592640092197   -55.012451607498
mvavggateway  1592640092115   -54.868734755762
mvavggateway  1592640091924   -55.211668668317
mvavggateway  1592640091877   -55.023226164615
mvavggateway  1592640091834   -55.419405483726
mvavggateway  1592640091696   -56.123153076501
mvavggateway  1592640091604   -55.829186390559
mvavggateway  1592640091507   -55.466935558493
mvavggateway  1592640091037   -54.92154875009
mvavggateway  1592640091037   -54.92154875009
mvavggateway  1592640090766   -54.342619321305
mvavggateway  1592640090766   -54.342619321305
mvavggateway  1592640090766   -54.342619321305
mvavggateway  1592640090669   -53.886764545809
mvavggateway  1592640090537   -53.312161018783
mvavggateway  1592640090401   -52.720514849462
mvavggateway  1592640090070   -52.366861311892
mvavggateway  1592640089926   -52.403458523426
mvavggateway  1592640089926   -52.403458523426
mvavggateway  1592640089746   -52.460048377545
mvavggateway  1592640089746   -52.460048377545
mvavggateway  1592640089746   -52.460048377545
mvavggateway  1592640089564   -52.296475490414
mvavggateway  1592640089564   -52.296475490414
mvavggateway  1592640089489   -52.296475490414
mvavggateway  1592640089489   -52.296475490414
mvavggateway  1592640089252   -52.188382387009
mvavggateway  1592640089045   -52.752718539642
mvavggateway  1592640088906   -52.752718539642
mvavggateway  1592640088608   -52.133061015523
mvavggateway  1592640088486   -52.080550746359
mvavggateway  1592640088486   -52.080550746359
mvavggateway  1592640088486   -52.080550746359
mvavggateway  1592640088165   -52.015334397906
mvavggateway  1592640088165   -52.015334397906
mvavggateway  1592640088165   -52.015334397906
mvavggateway  1592640087884   -51.505869472148
mvavggateway  1592640087884   -51.505869472148
mvavggateway  1592640087617   -51.598074658866
mvavggateway  1592640087524   -51.27138553996
mvavggateway  1592640087293   -50.984473884437
mvavggateway  1592640087107   -51.185280596074
mvavggateway  1592640086985   -50.858093593134
mvavggateway  1592640086806   -51.104624377535
mvavggateway  1592640086806   -51.104624377535
mvavggateway  1592640086725   -51.022229073443
mvavggateway  1592640086504   -50.74419950265
mvavggateway  1592640086406   -49.991828395895
mvavggateway  1592640086327   -49.865236997705
mvavggateway  1592640086327   -49.865236997705
mvavggateway  1592640086286   -49.716171109194
mvavggateway  1592640086146   -49.321706806399
mvavggateway  1592640086057   -49.010929048096
mvavggateway  1592640085982   -48.601873136314
mvavggateway  1592640085784   -48.203036045698
mvavggateway  1592640085784   -48.203036045698
mvavggateway  1592640085598   -47.825298097494
mvavggateway  1592640085598   -47.825298097494
mvavggateway  1592640085416   -47.392181511472
mvavggateway  1592640085326   -47.304202700887
mvavggateway  1592640085145   -46.874558090197
mvavggateway  1592640084785   -46.493155595234
mvavggateway  1592640084785   -46.493155595234
mvavggateway  1592640084746   -46.493155595234
mvavggateway  1592640084615   -46.659525860995
mvavggateway  1592640084265   -46.224253220604
mvavggateway  1592640084265   -46.224253220604
mvavggateway  1592640084265   -46.224253220604
mvavggateway  1592640084265   -46.224253220604
mvavggateway  1592640083936   -46.224253220604
mvavggateway  1592640083936   -46.224253220604
mvavggateway  1592640083936   -46.224253220604
mvavggateway  1592640083884   -46.292708967809
mvavggateway  1592640083745   -46.206702761529
mvavggateway  1592640083745   -46.206702761529
mvavggateway  1592640083566   -46.018471007702
mvavggateway  1592640083566   -46.018471007702
mvavggateway  1592640083566   -46.018471007702
mvavggateway  1592640083117   -45.656167170122
mvavggateway  1592640082843   -45.751655142073
mvavggateway  1592640082744   -45.675635592138
mvavggateway  1592640082607   -45.675635592138
mvavggateway  1592640082152   -44.904383636633
mvavggateway  1592640082152   -44.904383636633
mvavggateway  1592640082065   -44.904383636633
mvavggateway  1592640081922   -45.087630557797
mvavggateway  1592640081605   -45.005554012686
mvavggateway  1592640081605   -45.005554012686
mvavggateway  1592640081526   -44.924999890144
mvavggateway  1592640081526   -44.924999890144
mvavggateway  1592640081526   -44.924999890144
mvavggateway  1592640081434   -44.735623451072
mvavggateway  1592640081434   -44.735623451072
mvavggateway  1592640081434   -44.735623451072
mvavggateway  1592640081434   -44.735623451072
mvavggateway  1592640081072   -44.735623451072
mvavggateway  1592640081072   -44.735623451072
mvavggateway  1592640080807   -45.039328981177
mvavggateway  1592640080807   -45.039328981177
mvavggateway  1592640080671   -45.352220914594
mvavggateway  1592640080443   -45.62977991726
mvavggateway  1592640080443   -45.62977991726
