rtcorrected   1592638486408   -60.513795533553
rtcorrected   1592638486268   -60.212680893858
rtcorrected   1592638486219   -60.001637563505
rtcorrected   1592638486126   -59.885376561513
rtcorrected   1592638486036   -60.079270868047
rtcorrected   1592638485990   -59.965745207974
rtcorrected   1592638485946   -59.855111695967
rtcorrected   1592638485900   -60.096203397712
rtcorrected   1592638485802   -59.854868223849
rtcorrected   1592638485758   -60.064178540185
rtcorrected   1592638485716   -60.569903921767
rtcorrected   1592638485632   -60.569903921767
rtcorrected   1592638485481   -60.615603902615
rtcorrected   1592638485416   -61.644609440092
rtcorrected   1592638485280   -61.919079667315
rtcorrected   1592638485188   -60.666253204004
rtcorrected   1592638485002   -60.431704666914
rtcorrected   1592638484907   -60.431704666914
rtcorrected   1592638484826   -60.50031119427
rtcorrected   1592638484777   -61.21494150532
rtcorrected   1592638484596   -59.76110031994
rtcorrected   1592638484556   -59.76110031994
rtcorrected   1592638484327   -60.738263981003
rtcorrected   1592638484239   -61.494198637417
rtcorrected   1592638484201   -61.042204312351
rtcorrected   1592638484160   -60.964309020098
rtcorrected   1592638484112   -61.54125630132
rtcorrected   1592638483985   -61.249745758768
rtcorrected   1592638483893   -61.831935089051
rtcorrected   1592638483616   -61.895109784668
rtcorrected   1592638483572   -61.248691714132
rtcorrected   1592638483298   -61.304722886251
rtcorrected   1592638483247   -61.286493731428
rtcorrected   1592638483210   -61.868683061711
rtcorrected   1592638483173   -61.868683061711
rtcorrected   1592638483073   -62.567273952757
rtcorrected   1592638482981   -61.894777729158
rtcorrected   1592638482938   -61.300154988708
rtcorrected   1592638482791   -61.058057599002
rtcorrected   1592638482746   -61.065257756243
rtcorrected   1592638482700   -60.9695953934
rtcorrected   1592638482651   -61.512497256001
rtcorrected   1592638482562   -61.922291091716
rtcorrected   1592638482523   -61.922291091716
rtcorrected   1592638482485   -61.398259263175
rtcorrected   1592638482296   -61.324790811207
rtcorrected   1592638482251   -60.931729318198
rtcorrected   1592638482151   -61.474616157635
rtcorrected   1592638482103   -61.399283640144
rtcorrected   1592638482061   -60.98624017783
rtcorrected   1592638482017   -61.58863258266
rtcorrected   1592638481981   -61.678050097208
rtcorrected   1592638481920   -61.171268922773
rtcorrected   1592638481877   -61.239203056298
rtcorrected   1592638481786   -61.048106998099
rtcorrected   1592638481741   -60.478307470868
rtcorrected   1592638481699   -60.549403365751
rtcorrected   1592638481417   -60.577556991676
rtcorrected   1592638481378   -60.577556991676
rtcorrected   1592638481292   -60.577556991676
rtcorrected   1592638481250   -60.577556991676
rtcorrected   1592638481206   -59.73243717767
rtcorrected   1592638481028   -60.396743377142
rtcorrected   1592638480988   -60.939645239743
rtcorrected   1592638480938   -60.94295557321
rtcorrected   1592638480892   -60.533335868769
rtcorrected   1592638480801   -61.087899936467
rtcorrected   1592638480753   -61.380741168433
rtcorrected   1592638480658   -61.499707337295
rtcorrected   1592638480484   -61.549480240114
rtcorrected   1592638480349   -61.808075146282
rtcorrected   1592638480257   -61.572891423663
rtcorrected   1592638480172   -61.385324728363
rtcorrected   1592638480036   -60.759207576463
rtcorrected   1592638479999   -60.759207576463
rtcorrected   1592638479954   -60.204066319734
rtcorrected   1592638479810   -60.418015360657
rtcorrected   1592638479768   -59.402541726602
rtcorrected   1592638479686   -60.765239203459
rtcorrected   1592638479639   -59.938243044694
rtcorrected   1592638479587   -60.074367790954
rtcorrected   1592638479537   -60.817681649564
rtcorrected   1592638479451   -60.728246565529
rtcorrected   1592638479404   -60.533717613875
rtcorrected   1592638479267   -60.785430376636
rtcorrected   1592638479077   -60.50138489939
rtcorrected   1592638479034   -60.771691103668
rtcorrected   1592638478939   -60.600759762942
rtcorrected   1592638478849   -61.37900497831
rtcorrected   1592638478757   -60.552939665857
rtcorrected   1592638478367   -60.479203548241
rtcorrected   1592638478324   -60.574713741035
rtcorrected   1592638478276   -60.698019881139
rtcorrected   1592638478189   -60.614414636455
rtcorrected   1592638478021   -59.916013600657
rtcorrected   1592638477999   -60.637366843131
rtcorrected   1592638477916   -60.719578260927
rtcorrected   1592638477818   -59.467178458958
rtcorrected   1592638477777   -58.841013762013
rtcorrected   1592638477520   -57.57247294028
rtcorrected   1592638477421   -58.745566017996
rtcorrected   1592638477372   -58.379213073074
rtcorrected   1592638477187   -58.940382203159
rtcorrected   1592638477096   -58.968457623228
rtcorrected   1592638476977   -58.607776349056
rtcorrected   1592638476872   -59.674971559839
rtcorrected   1592638476682   -58.990865510094
rtcorrected   1592638476536   -59.362681817774
