mvavgclient   1592640556275   -58.524661917501
mvavgclient   1592640555567   -57.178409283502
mvavgclient   1592640555428   -57.178409283502
mvavgclient   1592640555387   -57.167770910759
mvavgclient   1592640555346   -57.414677176105
mvavgclient   1592640555302   -57.937022077908
mvavgclient   1592640555212   -57.52862843422
mvavgclient   1592640554973   -57.414677176105
mvavgclient   1592640554927   -57.558627165933
mvavgclient   1592640554790   -57.982789778351
mvavgclient   1592640554655   -57.455234051866
mvavgclient   1592640554558   -57.982789778351
mvavgclient   1592640554466   -58.112907035326
mvavgclient   1592640554376   -58.733159390369
mvavgclient   1592640554295   -58.356625153525
mvavgclient   1592640554246   -58.871606258834
mvavgclient   1592640554202   -58.232671620707
mvavgclient   1592640554158   -58.232671620707
mvavgclient   1592640554133   -58.370618716526
mvavgclient   1592640554067   -58.51309164308
mvavgclient   1592640554025   -57.908871678364
mvavgclient   1592640553982   -58.51309164308
mvavgclient   1592640553885   -58.049758856394
mvavgclient   1592640553792   -58.154414941118
mvavgclient   1592640553701   -57.606880644729
mvavgclient   1592640553652   -57.944230487481
mvavgclient   1592640553625   -57.270641148076
mvavgclient   1592640553416   -57.1357851802
mvavgclient   1592640553285   -57.541056108673
mvavgclient   1592640553236   -57.889535522594
mvavgclient   1592640553192   -58.13822527588
mvavgclient   1592640553163   -58.743109434341
mvavgclient   1592640552968   -58.654841921684
mvavgclient   1592640552881   -59.110713431175
mvavgclient   1592640552837   -59.216866978396
mvavgclient   1592640552745   -59.976427929685
mvavgclient   1592640552704   -59.733662571479
mvavgclient   1592640552627   -60.976698740973
mvavgclient   1592640552524   -62.853828572149
mvavgclient   1592640552475   -62.882029300388
mvavgclient   1592640552346   -63.119681675793
mvavgclient   1592640552294   -63.636658934165
mvavgclient   1592640552204   -61.98972409808
mvavgclient   1592640552170   -62.106749115536
mvavgclient   1592640552128   -62.106749115536
mvavgclient   1592640552027   -62.529383125443
mvavgclient   1592640551989   -61.762394889633
mvavgclient   1592640551946   -61.86027412342
mvavgclient   1592640551902   -61.428720170883
mvavgclient   1592640551863   -60.487463644007
mvavgclient   1592640551775   -60.445530366414
mvavgclient   1592640551732   -60.315529108358
mvavgclient   1592640551700   -59.964621731633
mvavgclient   1592640551645   -61.000514020823
mvavgclient   1592640551614   -59.775856378177
mvavgclient   1592640551564   -58.877693548893
mvavgclient   1592640551437   -57.960322651883
mvavgclient   1592640551400   -57.860188496409
mvavgclient   1592640551351   -57.119070476093
mvavgclient   1592640551256   -57.066728079825
mvavgclient   1592640551215   -56.964139367908
mvavgclient   1592640551170   -56.841116176878
mvavgclient   1592640551123   -56.22336385378
mvavgclient   1592640551076   -55.23801686451
mvavgclient   1592640551028   -54.316410457853
mvavgclient   1592640550983   -53.834219307116
mvavgclient   1592640550722   -53.661154740198
mvavgclient   1592640550627   -53.141421515247
mvavgclient   1592640550358   -52.401786851448
mvavgclient   1592640549916   -52.372133207316
mvavgclient   1592640549818   -52.35803615918
mvavgclient   1592640549616   -53.387506902516
