rawgateway    1592639965254   -42
rawgateway    1592639965211   -44
rawgateway    1592639965044   -43
rawgateway    1592639964865   -42
rawgateway    1592639964824   -40
rawgateway    1592639964775   -43
rawgateway    1592639964594   -42
rawgateway    1592639964505   -42
rawgateway    1592639964456   -44
rawgateway    1592639964200   -42
rawgateway    1592639964115   -42
rawgateway    1592639963986   -41
rawgateway    1592639963896   -43
rawgateway    1592639963628   -43
rawgateway    1592639963485   -43
rawgateway    1592639963434   -45
rawgateway    1592639963397   -42
rawgateway    1592639963306   -43
rawgateway    1592639963264   -44
rawgateway    1592639963083   -43
rawgateway    1592639963003   -44
rawgateway    1592639962954   -45
rawgateway    1592639962823   -42
rawgateway    1592639962732   -43
rawgateway    1592639962686   -45
rawgateway    1592639962646   -42
rawgateway    1592639962368   -42
rawgateway    1592639962272   -41
rawgateway    1592639962135   -45
rawgateway    1592639961815   -45
rawgateway    1592639961721   -44
rawgateway    1592639961673   -43
rawgateway    1592639961625   -42
rawgateway    1592639961574   -44
rawgateway    1592639961533   -42
rawgateway    1592639961397   -45
rawgateway    1592639961353   -45
rawgateway    1592639960982   -41
rawgateway    1592639960895   -43
rawgateway    1592639960851   -44
rawgateway    1592639960813   -42
rawgateway    1592639960724   -42
rawgateway    1592639960424   -42
rawgateway    1592639960392   -44
rawgateway    1592639960284   -45
rawgateway    1592639959929   -43
rawgateway    1592639959799   -45
rawgateway    1592639959623   -45
rawgateway    1592639959453   -41
rawgateway    1592639959408   -44
