mvavggateway  1592893309508   -46.946627123381
mvavggateway  1592893309508   -46.946627123381
mvavggateway  1592893309365   -46.917176117969
mvavggateway  1592893309228   -47.956386441111
mvavggateway  1592893309089   -47.525499534115
mvavggateway  1592893309089   -47.525499534115
mvavggateway  1592893308940   -47.4873101922
mvavggateway  1592893308797   -48.731211433382
mvavggateway  1592893308658   -48.738851011357
mvavggateway  1592893308516   -48.702006672488
mvavggateway  1592893308375   -50.423337755897
mvavggateway  1592893308098   -54.079506968055
mvavggateway  1592893307809   -53.954760677995
mvavggateway  1592893307809   -53.954760677995
mvavggateway  1592893307670   -54.079506968055
mvavggateway  1592893307526   -54.132004541902
mvavggateway  1592893307382   -54.132004541902
mvavggateway  1592893307239   -52.278935378158
mvavggateway  1592893307092   -52.251567980673
mvavggateway  1592893306954   -52.335450869377
mvavggateway  1592893306663   -52.273235341587
mvavggateway  1592893306518   -52.2459753246
mvavggateway  1592893306383   -51.42521476413
mvavggateway  1592893306105   -51.494446890474
mvavggateway  1592893305967   -52.271356796904
mvavggateway  1592893305820   -52.627470565416
mvavggateway  1592893305542   -54.678091233412
mvavggateway  1592893305380   -54.413485939355
mvavggateway  1592893305241   -54.470207462587
mvavggateway  1592893305097   -54.521857289563
mvavggateway  1592893304807   -54.793361817854
mvavggateway  1592893304807   -54.793361817854
mvavggateway  1592893304670   -54.732289376236
mvavggateway  1592893304670   -54.732289376236
mvavggateway  1592893304095   -57.900350879065
mvavggateway  1592893304095   -57.900350879065
mvavggateway  1592893303948   -58.44009050309
mvavggateway  1592893303520   -51.238989080476
mvavggateway  1592893303520   -51.238989080476
mvavggateway  1592893303379   -51.859682556027
mvavggateway  1592893303237   -51.92190348136
mvavggateway  1592893303097   -51.161155010169
mvavggateway  1592893302949   -51.161155010169
mvavggateway  1592893302814   -51.134587384453
mvavggateway  1592893302540   -51.094244289869
mvavggateway  1592893302396   -50.189867699306
mvavggateway  1592893302104   -50.228271458311
mvavggateway  1592893302104   -50.228271458311
mvavggateway  1592893301819   -50.167995040291
mvavggateway  1592893301676   -52.763252728513
mvavggateway  1592893301389   -52.893304028776
mvavggateway  1592893301107   -50.200560404601
mvavggateway  1592893300966   -51.035344113531
mvavggateway  1592893300680   -49.133983748087
mvavggateway  1592893300680   -49.133983748087
mvavggateway  1592893300246   -49.120731124074
mvavggateway  1592893300246   -49.120731124074
mvavggateway  1592893299967   -49.090942460429
mvavggateway  1592893299684   -49.059185814098
mvavggateway  1592893299538   -49.099203050518
mvavggateway  1592893299400   -49.099203050518
mvavggateway  1592893299257   -49.060840140498
mvavggateway  1592893299123   -51.0072213474
mvavggateway  1592893298684   -54.333900895874
mvavggateway  1592893298684   -54.333900895874
mvavggateway  1592893298409   -54.333900895874
mvavggateway  1592893298265   -57.017942215826
mvavggateway  1592893297836   -49.231245054715
mvavggateway  1592893297689   -49.231245054715
mvavggateway  1592893297267   -49.174803049268
mvavggateway  1592893296844   -49.174803049268
mvavggateway  1592893296844   -49.174803049268
mvavggateway  1592893296418   -49.174803049268
mvavggateway  1592893296271   -49.206957836691
mvavggateway  1592893296130   -50.333409186205
mvavggateway  1592893295845   -50.311440286188
mvavggateway  1592893295699   -54.201742547763
mvavggateway  1592893295559   -54.201742547763
mvavggateway  1592893295266   -54.361720222603
mvavggateway  1592893295266   -54.361720222603
mvavggateway  1592893295120   -54.361720222603
mvavggateway  1592893294835   -52.197706704797
mvavggateway  1592893294835   -52.197706704797
mvavggateway  1592893294835   -52.197706704797
mvavggateway  1592893294405   -52.498445143603
mvavggateway  1592893294401   -52.722654056506
mvavggateway  1592893294119   -52.241582537423
mvavggateway  1592893293692   -49.890511043824
mvavggateway  1592893293692   -49.890511043824
mvavggateway  1592893293257   -49.097245814914
mvavggateway  1592893292976   -49.696038850336
mvavggateway  1592893292830   -49.696038850336
mvavggateway  1592893292830   -49.696038850336
mvavggateway  1592893292405   -49.742410182744
mvavggateway  1592893292117   -49.742410182744
mvavggateway  1592893292117   -49.742410182744
mvavggateway  1592893291982   -53.947150597876
mvavggateway  1592893291839   -52.470070646202
mvavggateway  1592893291697   -52.521718836358
mvavggateway  1592893291562   -52.456797126828
mvavggateway  1592893291418   -54.546251065978
mvavggateway  1592893291418   -54.546251065978
mvavggateway  1592893291273   -54.604745270043
mvavggateway  1592893291124   -54.805079811995
mvavggateway  1592893290979   -53.062794084802
mvavggateway  1592893290832   -53.004339097082
mvavggateway  1592893290405   -51.781967156559
mvavggateway  1592893290405   -51.781967156559
mvavggateway  1592893290260   -50.279454546507
mvavggateway  1592893289977   -48.644712288824
mvavggateway  1592893288969   -47.396082238594
