rawclient     1592745240227   -44
rawclient     1592745240179   -50
rawclient     1592745240060   -60
rawclient     1592745240017   -54
rawclient     1592745239975   -55
rawclient     1592745239867   -55
rawclient     1592745239823   -50
rawclient     1592745239777   -54
rawclient     1592745239662   -54
rawclient     1592745239618   -55
rawclient     1592745239579   -59
rawclient     1592745239418   -54
rawclient     1592745239375   -54
rawclient     1592745239177   -54
rawclient     1592745239020   -40
rawclient     1592745238978   -59
rawclient     1592745238775   -54
rawclient     1592745238670   -58
rawclient     1592745238577   -55
rawclient     1592745238420   -55
rawclient     1592745238378   -60
rawclient     1592745238176   -54
rawclient     1592745238060   -44
rawclient     1592745238021   -59
rawclient     1592745237977   -54
rawclient     1592745237820   -44
rawclient     1592745237629   -60
rawclient     1592745237576   -55
rawclient     1592745237421   -60
rawclient     1592745237377   -55
rawclient     1592745237020   -54
rawclient     1592745236975   -55
rawclient     1592745236825   -55
rawclient     1592745236777   -54
rawclient     1592745236623   -55
rawclient     1592745236578   -50
rawclient     1592745236465   -40
rawclient     1592745236420   -55
rawclient     1592745236376   -55
rawclient     1592745236260   -55
rawclient     1592745236177   -44
rawclient     1592745236021   -55
rawclient     1592745235867   -54
rawclient     1592745235819   -55
rawclient     1592745235776   -55
rawclient     1592745235659   -44
rawclient     1592745235618   -45
rawclient     1592745235578   -44
rawclient     1592745235421   -55
rawclient     1592745235378   -60
rawclient     1592745235176   -44
rawclient     1592745235026   -40
rawclient     1592745234977   -54
rawclient     1592745234863   -39
rawclient     1592745234818   -54
rawclient     1592745234778   -60
rawclient     1592745234576   -55
rawclient     1592745234461   -55
rawclient     1592745234418   -60
rawclient     1592745234377   -55
rawclient     1592745234271   -65
rawclient     1592745234221   -40
rawclient     1592745234179   -60
rawclient     1592745234026   -59
rawclient     1592745233976   -55
rawclient     1592745233825   -55
rawclient     1592745233777   -54
rawclient     1592745233578   -60
rawclient     1592745233376   -55
rawclient     1592745233177   -54
rawclient     1592745233025   -54
rawclient     1592745232978   -60
rawclient     1592745232866   -55
rawclient     1592745232828   -44
rawclient     1592745232776   -54
rawclient     1592745232666   -54
rawclient     1592745232577   -55
rawclient     1592745232467   -60
rawclient     1592745232417   -55
rawclient     1592745232378   -60
rawclient     1592745232266   -40
rawclient     1592745232221   -55
rawclient     1592745232176   -40
rawclient     1592745232066   -54
rawclient     1592745231977   -54
rawclient     1592745231825   -54
rawclient     1592745231778   -59
rawclient     1592745231668   -55
rawclient     1592745231626   -45
rawclient     1592745231575   -54
rawclient     1592745231470   -45
rawclient     1592745231426   -40
rawclient     1592745231377   -55
rawclient     1592745231227   -39
rawclient     1592745231062   -45
rawclient     1592745231020   -40
rawclient     1592745230975   -54
rawclient     1592745230870   -59
rawclient     1592745230776   -55
rawclient     1592745230621   -55
rawclient     1592745230579   -60
rawclient     1592745230427   -60
rawclient     1592745230375   -54
rawclient     1592745230266   -54
rawclient     1592745230222   -59
rawclient     1592745230178   -54
rawclient     1592745230027   -55
rawclient     1592745230024   -55
rawclient     1592745229979   -45
rawclient     1592745229820   -55
rawclient     1592745229775   -55
rawclient     1592745229625   -40
rawclient     1592745229419   -55
rawclient     1592745229379   -62
rawclient     1592745229262   -59
rawclient     1592745229219   -54
rawclient     1592745229175   -55
rawclient     1592745229070   -59
rawclient     1592745229021   -45
rawclient     1592745228977   -55
rawclient     1592745228859   -55
rawclient     1592745228816   -54
rawclient     1592745228778   -60
rawclient     1592745228668   -54
rawclient     1592745228627   -60
rawclient     1592745228468   -40
rawclient     1592745228425   -40
rawclient     1592745228376   -54
rawclient     1592745228225   -55
rawclient     1592745228027   -60
rawclient     1592745227975   -55
rawclient     1592745227776   -54
rawclient     1592745227616   -55
rawclient     1592745227584   -60
rawclient     1592745227467   -54
rawclient     1592745227375   -55
rawclient     1592745227177   -54
rawclient     1592745227066   -61
rawclient     1592745227016   -54
rawclient     1592745226979   -45
rawclient     1592745226820   -39
rawclient     1592745226776   -40
rawclient     1592745226661   -40
rawclient     1592745226620   -60
rawclient     1592745226468   -60
rawclient     1592745226418   -55
rawclient     1592745226379   -60
rawclient     1592745226225   -45
rawclient     1592745226175   -54
rawclient     1592745225977   -44
rawclient     1592745225867   -59
rawclient     1592745225822   -55
rawclient     1592745225618   -44
rawclient     1592745225575   -55
rawclient     1592745225467   -54
rawclient     1592745225424   -55
rawclient     1592745225377   -44
rawclient     1592745225065   -54
rawclient     1592745225025   -59
rawclient     1592745224975   -54
rawclient     1592745224823   -59
rawclient     1592745224776   -54
rawclient     1592745224668   -59
rawclient     1592745224619   -40
rawclient     1592745224429   -60
rawclient     1592745224376   -54
rawclient     1592745224260   -55
rawclient     1592745224221   -61
rawclient     1592745224177   -54
rawclient     1592745224061   -40
rawclient     1592745224020   -55
rawclient     1592745223866   -54
rawclient     1592745223826   -45
rawclient     1592745223775   -55
rawclient     1592745223665   -54
rawclient     1592745223620   -60
rawclient     1592745223576   -55
rawclient     1592745223421   -54
rawclient     1592745223377   -60
rawclient     1592745223221   -44
rawclient     1592745223175   -54
rawclient     1592745223065   -44
rawclient     1592745223062   -44
rawclient     1592745222977   -54
rawclient     1592745222860   -39
rawclient     1592745222815   -40
rawclient     1592745222778   -59
rawclient     1592745222626   -61
rawclient     1592745222575   -55
rawclient     1592745222376   -54
rawclient     1592745222220   -54
rawclient     1592745222179   -60
rawclient     1592745222019   -55
rawclient     1592745221826   -56
rawclient     1592745221778   -55
rawclient     1592745221667   -61
rawclient     1592745221620   -54
rawclient     1592745221579   -61
rawclient     1592745221466   -54
rawclient     1592745221421   -55
rawclient     1592745221375   -40
rawclient     1592745221270   -59
rawclient     1592745221177   -54
rawclient     1592745221065   -61
rawclient     1592745221017   -55
rawclient     1592745220979   -59
rawclient     1592745220869   -59
rawclient     1592745220825   -50
rawclient     1592745220777   -54
rawclient     1592745220620   -59
rawclient     1592745220577   -55
rawclient     1592745220463   -54
rawclient     1592745220419   -54
rawclient     1592745220379   -59
rawclient     1592745220222   -54
rawclient     1592745220177   -54
rawclient     1592745220020   -60
rawclient     1592745219978   -55
rawclient     1592745219861   -39
rawclient     1592745219818   -55
rawclient     1592745219778   -59
rawclient     1592745219669   -60
rawclient     1592745219629   -60
rawclient     1592745219576   -40
rawclient     1592745219458   -55
rawclient     1592745219377   -55
rawclient     1592745219179   -61
rawclient     1592745219027   -60
rawclient     1592745219023   -54
rawclient     1592745218975   -54
rawclient     1592745218822   -60
rawclient     1592745218776   -55
rawclient     1592745218625   -39
rawclient     1592745218622   -40
rawclient     1592745218578   -60
rawclient     1592745218422   -54
rawclient     1592745218384   -55
rawclient     1592745218270   -58
rawclient     1592745218178   -55
rawclient     1592745218028   -55
rawclient     1592745217979   -60
rawclient     1592745217775   -55
rawclient     1592745217576   -39
rawclient     1592745217422   -54
rawclient     1592745217387   -45
rawclient     1592745217222   -40
rawclient     1592745217176   -55
rawclient     1592745217065   -54
rawclient     1592745217030   -60
rawclient     1592745216977   -55
rawclient     1592745216827   -55
rawclient     1592745216778   -50
rawclient     1592745216628   -45
rawclient     1592745216575   -55
rawclient     1592745216470   -59
rawclient     1592745216377   -54
rawclient     1592745216227   -55
rawclient     1592745216223   -54
rawclient     1592745216178   -61
rawclient     1592745216068   -58
rawclient     1592745216020   -44
rawclient     1592745215976   -55
rawclient     1592745215863   -40
rawclient     1592745215777   -39
rawclient     1592745215626   -44
rawclient     1592745215578   -59
rawclient     1592745215421   -55
rawclient     1592745215376   -54
rawclient     1592745215263   -44
rawclient     1592745215220   -60
rawclient     1592745215177   -44
rawclient     1592745215021   -44
rawclient     1592745214979   -61
rawclient     1592745214827   -60
rawclient     1592745214823   -55
rawclient     1592745214775   -40
rawclient     1592745214577   -54
rawclient     1592745214419   -55
rawclient     1592745214378   -60
rawclient     1592745214267   -55
rawclient     1592745214227   -62
