664,-79,2.75,calibration,1,1,2020-05-23 17:20:47,2020-05-23 17:20:47
665,-61,2.75,calibration,1,1,2020-05-23 17:20:47,2020-05-23 17:20:47
666,-60,2.75,calibration,1,1,2020-05-23 17:20:47,2020-05-23 17:20:47
667,-59,2.75,calibration,1,1,2020-05-23 17:20:47,2020-05-23 17:20:47
668,-59,2.75,calibration,1,1,2020-05-23 17:20:47,2020-05-23 17:20:47
669,-75,2.75,calibration,1,1,2020-05-23 17:20:47,2020-05-23 17:20:47
670,-60,2.75,calibration,1,1,2020-05-23 17:20:47,2020-05-23 17:20:47
671,-61,2.75,calibration,1,1,2020-05-23 17:20:47,2020-05-23 17:20:47
672,-62,2.75,calibration,1,1,2020-05-23 17:20:47,2020-05-23 17:20:47
673,-78,2.75,calibration,1,1,2020-05-23 17:20:47,2020-05-23 17:20:47
674,-59,2.75,calibration,1,1,2020-05-23 17:20:47,2020-05-23 17:20:47
675,-60,2.75,calibration,1,1,2020-05-23 17:20:47,2020-05-23 17:20:47
676,-60,2.75,calibration,1,1,2020-05-23 17:20:47,2020-05-23 17:20:47
677,-88,2.75,calibration,1,1,2020-05-23 17:20:47,2020-05-23 17:20:47
678,-60,2.75,calibration,1,1,2020-05-23 17:20:47,2020-05-23 17:20:47
679,-78,2.75,calibration,1,1,2020-05-23 17:20:47,2020-05-23 17:20:47
680,-60,2.75,calibration,1,1,2020-05-23 17:20:47,2020-05-23 17:20:47
681,-78,2.75,calibration,1,1,2020-05-23 17:20:47,2020-05-23 17:20:47
682,-61,2.75,calibration,1,1,2020-05-23 17:20:47,2020-05-23 17:20:47
683,-76,2.75,calibration,1,1,2020-05-23 17:20:47,2020-05-23 17:20:47
684,-76,2.75,calibration,1,1,2020-05-23 17:20:47,2020-05-23 17:20:47
685,-60,2.75,calibration,1,1,2020-05-23 17:20:47,2020-05-23 17:20:47
686,-62,2.75,calibration,1,1,2020-05-23 17:20:47,2020-05-23 17:20:47
687,-78,2.75,calibration,1,1,2020-05-23 17:20:47,2020-05-23 17:20:47
688,-60,2.75,calibration,1,1,2020-05-23 17:20:47,2020-05-23 17:20:47
689,-80,2.75,calibration,1,1,2020-05-23 17:20:47,2020-05-23 17:20:47
690,-61,2.75,calibration,1,1,2020-05-23 17:20:47,2020-05-23 17:20:47
691,-78,2.75,calibration,1,1,2020-05-23 17:20:47,2020-05-23 17:20:47
692,-62,2.75,calibration,1,1,2020-05-23 17:20:47,2020-05-23 17:20:47
693,-77,2.75,calibration,1,1,2020-05-23 17:20:47,2020-05-23 17:20:47
694,-79,2.75,calibration,1,1,2020-05-23 17:20:47,2020-05-23 17:20:47
695,-63,2.75,calibration,1,1,2020-05-23 17:20:47,2020-05-23 17:20:47
696,-77,2.75,calibration,1,1,2020-05-23 17:20:47,2020-05-23 17:20:47
697,-61,2.75,calibration,1,1,2020-05-23 17:20:47,2020-05-23 17:20:47
698,-63,2.75,calibration,1,1,2020-05-23 17:20:47,2020-05-23 17:20:47
699,-61,2.75,calibration,1,1,2020-05-23 17:20:47,2020-05-23 17:20:47
700,-78,2.75,calibration,1,1,2020-05-23 17:20:47,2020-05-23 17:20:47
701,-61,2.75,calibration,1,1,2020-05-23 17:20:47,2020-05-23 17:20:47
702,-61,2.75,calibration,1,1,2020-05-23 17:20:47,2020-05-23 17:20:47
703,-63,2.75,calibration,1,1,2020-05-23 17:20:47,2020-05-23 17:20:47
704,-76,2.75,calibration,1,1,2020-05-23 17:20:47,2020-05-23 17:20:47
705,-63,2.75,calibration,1,1,2020-05-23 17:20:47,2020-05-23 17:20:47
706,-79,2.75,calibration,1,1,2020-05-23 17:20:47,2020-05-23 17:20:47
707,-63,2.75,calibration,1,1,2020-05-23 17:20:47,2020-05-23 17:20:47
708,-80,2.75,calibration,1,1,2020-05-23 17:20:47,2020-05-23 17:20:47
709,-62,2.75,calibration,1,1,2020-05-23 17:20:47,2020-05-23 17:20:47
710,-81,2.75,calibration,1,1,2020-05-23 17:20:47,2020-05-23 17:20:47
711,-62,2.75,calibration,1,1,2020-05-23 17:20:47,2020-05-23 17:20:47
712,-62,2.75,calibration,1,1,2020-05-23 17:20:47,2020-05-23 17:20:47
713,-62,2.75,calibration,1,1,2020-05-23 17:20:47,2020-05-23 17:20:47
714,-62,2.75,calibration,1,1,2020-05-23 17:20:47,2020-05-23 17:20:47
715,-62,2.75,calibration,1,1,2020-05-23 17:20:47,2020-05-23 17:20:47
716,-62,2.75,calibration,1,1,2020-05-23 17:20:47,2020-05-23 17:20:47
717,-63,2.75,calibration,1,1,2020-05-23 17:20:47,2020-05-23 17:20:47
718,-62,2.75,calibration,1,1,2020-05-23 17:20:47,2020-05-23 17:20:47
719,-63,2.75,calibration,1,1,2020-05-23 17:20:47,2020-05-23 17:20:47
720,-61,2.75,calibration,1,1,2020-05-23 17:20:47,2020-05-23 17:20:47
721,-61,2.75,calibration,1,1,2020-05-23 17:20:47,2020-05-23 17:20:47
722,-62,2.75,calibration,1,1,2020-05-23 17:20:47,2020-05-23 17:20:47
723,-77,2.75,calibration,1,1,2020-05-23 17:20:47,2020-05-23 17:20:47
724,-61,2.75,calibration,1,1,2020-05-23 17:20:47,2020-05-23 17:20:47
725,-63,2.75,calibration,1,1,2020-05-23 17:20:47,2020-05-23 17:20:47
726,-63,2.75,calibration,1,1,2020-05-23 17:20:47,2020-05-23 17:20:47
727,-80,2.75,calibration,1,1,2020-05-23 17:20:47,2020-05-23 17:20:47
728,-62,2.75,calibration,1,1,2020-05-23 17:20:47,2020-05-23 17:20:47
729,-61,2.75,calibration,1,1,2020-05-23 17:20:47,2020-05-23 17:20:47
1937,-60,2.75,calibration,1,2,2020-05-23 17:54:41,2020-05-23 17:54:41
1938,-61,2.75,calibration,1,2,2020-05-23 17:54:41,2020-05-23 17:54:41
1939,-72,2.75,calibration,1,2,2020-05-23 17:54:41,2020-05-23 17:54:41
1940,-61,2.75,calibration,1,2,2020-05-23 17:54:41,2020-05-23 17:54:41
1941,-60,2.75,calibration,1,2,2020-05-23 17:54:41,2020-05-23 17:54:41
1942,-60,2.75,calibration,1,2,2020-05-23 17:54:41,2020-05-23 17:54:41
1943,-59,2.75,calibration,1,2,2020-05-23 17:54:41,2020-05-23 17:54:41
1944,-60,2.75,calibration,1,2,2020-05-23 17:54:41,2020-05-23 17:54:41
1945,-60,2.75,calibration,1,2,2020-05-23 17:54:41,2020-05-23 17:54:41
1946,-71,2.75,calibration,1,2,2020-05-23 17:54:41,2020-05-23 17:54:41
1947,-59,2.75,calibration,1,2,2020-05-23 17:54:41,2020-05-23 17:54:41
1948,-72,2.75,calibration,1,2,2020-05-23 17:54:41,2020-05-23 17:54:41
1949,-61,2.75,calibration,1,2,2020-05-23 17:54:41,2020-05-23 17:54:41
1950,-72,2.75,calibration,1,2,2020-05-23 17:54:41,2020-05-23 17:54:41
1951,-59,2.75,calibration,1,2,2020-05-23 17:54:41,2020-05-23 17:54:41
1952,-60,2.75,calibration,1,2,2020-05-23 17:54:41,2020-05-23 17:54:41
1953,-59,2.75,calibration,1,2,2020-05-23 17:54:41,2020-05-23 17:54:41
1954,-59,2.75,calibration,1,2,2020-05-23 17:54:41,2020-05-23 17:54:41
1955,-73,2.75,calibration,1,2,2020-05-23 17:54:41,2020-05-23 17:54:41
1956,-59,2.75,calibration,1,2,2020-05-23 17:54:41,2020-05-23 17:54:41
1957,-60,2.75,calibration,1,2,2020-05-23 17:54:41,2020-05-23 17:54:41
1958,-59,2.75,calibration,1,2,2020-05-23 17:54:41,2020-05-23 17:54:41
1959,-75,2.75,calibration,1,2,2020-05-23 17:54:41,2020-05-23 17:54:41
1960,-61,2.75,calibration,1,2,2020-05-23 17:54:41,2020-05-23 17:54:41
1961,-61,2.75,calibration,1,2,2020-05-23 17:54:41,2020-05-23 17:54:41
1962,-61,2.75,calibration,1,2,2020-05-23 17:54:41,2020-05-23 17:54:41
1963,-72,2.75,calibration,1,2,2020-05-23 17:54:41,2020-05-23 17:54:41
1964,-59,2.75,calibration,1,2,2020-05-23 17:54:41,2020-05-23 17:54:41
1965,-61,2.75,calibration,1,2,2020-05-23 17:54:41,2020-05-23 17:54:41
1966,-72,2.75,calibration,1,2,2020-05-23 17:54:41,2020-05-23 17:54:41
1967,-61,2.75,calibration,1,2,2020-05-23 17:54:41,2020-05-23 17:54:41
1968,-71,2.75,calibration,1,2,2020-05-23 17:54:41,2020-05-23 17:54:41
1969,-61,2.75,calibration,1,2,2020-05-23 17:54:41,2020-05-23 17:54:41
1970,-71,2.75,calibration,1,2,2020-05-23 17:54:41,2020-05-23 17:54:41
1971,-61,2.75,calibration,1,2,2020-05-23 17:54:41,2020-05-23 17:54:41
1972,-72,2.75,calibration,1,2,2020-05-23 17:54:41,2020-05-23 17:54:41
1973,-61,2.75,calibration,1,2,2020-05-23 17:54:41,2020-05-23 17:54:41
1974,-71,2.75,calibration,1,2,2020-05-23 17:54:41,2020-05-23 17:54:41
1975,-72,2.75,calibration,1,2,2020-05-23 17:54:41,2020-05-23 17:54:41
1976,-59,2.75,calibration,1,2,2020-05-23 17:54:41,2020-05-23 17:54:41
1977,-72,2.75,calibration,1,2,2020-05-23 17:54:41,2020-05-23 17:54:41
1978,-60,2.75,calibration,1,2,2020-05-23 17:54:41,2020-05-23 17:54:41
1979,-71,2.75,calibration,1,2,2020-05-23 17:54:41,2020-05-23 17:54:41
1980,-61,2.75,calibration,1,2,2020-05-23 17:54:41,2020-05-23 17:54:41
1981,-73,2.75,calibration,1,2,2020-05-23 17:54:41,2020-05-23 17:54:41
1982,-60,2.75,calibration,1,2,2020-05-23 17:54:41,2020-05-23 17:54:41
1983,-60,2.75,calibration,1,2,2020-05-23 17:54:41,2020-05-23 17:54:41
1984,-73,2.75,calibration,1,2,2020-05-23 17:54:41,2020-05-23 17:54:41
1985,-61,2.75,calibration,1,2,2020-05-23 17:54:41,2020-05-23 17:54:41
1986,-72,2.75,calibration,1,2,2020-05-23 17:54:41,2020-05-23 17:54:41
1987,-61,2.75,calibration,1,2,2020-05-23 17:54:41,2020-05-23 17:54:41
1988,-71,2.75,calibration,1,2,2020-05-23 17:54:41,2020-05-23 17:54:41
1989,-61,2.75,calibration,1,2,2020-05-23 17:54:41,2020-05-23 17:54:41
1990,-60,2.75,calibration,1,2,2020-05-23 17:54:41,2020-05-23 17:54:41
1991,-61,2.75,calibration,1,2,2020-05-23 17:54:41,2020-05-23 17:54:41
1992,-71,2.75,calibration,1,2,2020-05-23 17:54:41,2020-05-23 17:54:41
1993,-61,2.75,calibration,1,2,2020-05-23 17:54:41,2020-05-23 17:54:41
1994,-60,2.75,calibration,1,2,2020-05-23 17:54:41,2020-05-23 17:54:41
1995,-71,2.75,calibration,1,2,2020-05-23 17:54:41,2020-05-23 17:54:41
1996,-60,2.75,calibration,1,2,2020-05-23 17:54:41,2020-05-23 17:54:41
1997,-61,2.75,calibration,1,2,2020-05-23 17:54:41,2020-05-23 17:54:41
1998,-61,2.75,calibration,1,2,2020-05-23 17:54:41,2020-05-23 17:54:41
1999,-71,2.75,calibration,1,2,2020-05-23 17:54:41,2020-05-23 17:54:41
2000,-60,2.75,calibration,1,2,2020-05-23 17:54:41,2020-05-23 17:54:41
2001,-71,2.75,calibration,1,2,2020-05-23 17:54:41,2020-05-23 17:54:41
2002,-61,2.75,calibration,1,2,2020-05-23 17:54:41,2020-05-23 17:54:41
2003,-60,2.75,calibration,1,2,2020-05-23 17:54:41,2020-05-23 17:54:41
2004,-60,2.75,calibration,1,2,2020-05-23 17:54:41,2020-05-23 17:54:41
2005,-61,2.75,calibration,1,2,2020-05-23 17:54:41,2020-05-23 17:54:41
2006,-59,2.75,calibration,1,2,2020-05-23 17:54:41,2020-05-23 17:54:41
3158,-63,2.75,calibration,1,3,2020-05-23 18:05:29,2020-05-23 18:05:29
3159,-61,2.75,calibration,1,3,2020-05-23 18:05:29,2020-05-23 18:05:29
3160,-62,2.75,calibration,1,3,2020-05-23 18:05:29,2020-05-23 18:05:29
3161,-73,2.75,calibration,1,3,2020-05-23 18:05:29,2020-05-23 18:05:29
3162,-63,2.75,calibration,1,3,2020-05-23 18:05:29,2020-05-23 18:05:29
3163,-72,2.75,calibration,1,3,2020-05-23 18:05:29,2020-05-23 18:05:29
3164,-65,2.75,calibration,1,3,2020-05-23 18:05:29,2020-05-23 18:05:29
3165,-71,2.75,calibration,1,3,2020-05-23 18:05:29,2020-05-23 18:05:29
3166,-63,2.75,calibration,1,3,2020-05-23 18:05:29,2020-05-23 18:05:29
3167,-70,2.75,calibration,1,3,2020-05-23 18:05:29,2020-05-23 18:05:29
3168,-64,2.75,calibration,1,3,2020-05-23 18:05:29,2020-05-23 18:05:29
3169,-68,2.75,calibration,1,3,2020-05-23 18:05:29,2020-05-23 18:05:29
3170,-61,2.75,calibration,1,3,2020-05-23 18:05:29,2020-05-23 18:05:29
3171,-63,2.75,calibration,1,3,2020-05-23 18:05:29,2020-05-23 18:05:29
3172,-63,2.75,calibration,1,3,2020-05-23 18:05:29,2020-05-23 18:05:29
3173,-69,2.75,calibration,1,3,2020-05-23 18:05:29,2020-05-23 18:05:29
3174,-66,2.75,calibration,1,3,2020-05-23 18:05:29,2020-05-23 18:05:29
3175,-62,2.75,calibration,1,3,2020-05-23 18:05:29,2020-05-23 18:05:29
3176,-69,2.75,calibration,1,3,2020-05-23 18:05:29,2020-05-23 18:05:29
3177,-70,2.75,calibration,1,3,2020-05-23 18:05:29,2020-05-23 18:05:29
3178,-62,2.75,calibration,1,3,2020-05-23 18:05:29,2020-05-23 18:05:29
3179,-70,2.75,calibration,1,3,2020-05-23 18:05:29,2020-05-23 18:05:29
3180,-64,2.75,calibration,1,3,2020-05-23 18:05:29,2020-05-23 18:05:29
3181,-70,2.75,calibration,1,3,2020-05-23 18:05:29,2020-05-23 18:05:29
3182,-62,2.75,calibration,1,3,2020-05-23 18:05:29,2020-05-23 18:05:29
3183,-63,2.75,calibration,1,3,2020-05-23 18:05:29,2020-05-23 18:05:29
3184,-69,2.75,calibration,1,3,2020-05-23 18:05:29,2020-05-23 18:05:29
3185,-62,2.75,calibration,1,3,2020-05-23 18:05:29,2020-05-23 18:05:29
3186,-70,2.75,calibration,1,3,2020-05-23 18:05:29,2020-05-23 18:05:29
3187,-63,2.75,calibration,1,3,2020-05-23 18:05:29,2020-05-23 18:05:29
3188,-63,2.75,calibration,1,3,2020-05-23 18:05:29,2020-05-23 18:05:29
3189,-63,2.75,calibration,1,3,2020-05-23 18:05:29,2020-05-23 18:05:29
3190,-70,2.75,calibration,1,3,2020-05-23 18:05:29,2020-05-23 18:05:29
3191,-62,2.75,calibration,1,3,2020-05-23 18:05:29,2020-05-23 18:05:29
3192,-65,2.75,calibration,1,3,2020-05-23 18:05:29,2020-05-23 18:05:29
3193,-70,2.75,calibration,1,3,2020-05-23 18:05:29,2020-05-23 18:05:29
3194,-62,2.75,calibration,1,3,2020-05-23 18:05:29,2020-05-23 18:05:29
3195,-65,2.75,calibration,1,3,2020-05-23 18:05:29,2020-05-23 18:05:29
3196,-65,2.75,calibration,1,3,2020-05-23 18:05:29,2020-05-23 18:05:29
3197,-70,2.75,calibration,1,3,2020-05-23 18:05:29,2020-05-23 18:05:29
3198,-62,2.75,calibration,1,3,2020-05-23 18:05:29,2020-05-23 18:05:29
3199,-65,2.75,calibration,1,3,2020-05-23 18:05:29,2020-05-23 18:05:29
3200,-70,2.75,calibration,1,3,2020-05-23 18:05:29,2020-05-23 18:05:29
3201,-62,2.75,calibration,1,3,2020-05-23 18:05:29,2020-05-23 18:05:29
3202,-65,2.75,calibration,1,3,2020-05-23 18:05:29,2020-05-23 18:05:29
3203,-66,2.75,calibration,1,3,2020-05-23 18:05:29,2020-05-23 18:05:29
3204,-70,2.75,calibration,1,3,2020-05-23 18:05:29,2020-05-23 18:05:29
3205,-70,2.75,calibration,1,3,2020-05-23 18:05:29,2020-05-23 18:05:29
3206,-62,2.75,calibration,1,3,2020-05-23 18:05:29,2020-05-23 18:05:29
3207,-69,2.75,calibration,1,3,2020-05-23 18:05:29,2020-05-23 18:05:29
3208,-70,2.75,calibration,1,3,2020-05-23 18:05:29,2020-05-23 18:05:29
3209,-62,2.75,calibration,1,3,2020-05-23 18:05:29,2020-05-23 18:05:29
3210,-65,2.75,calibration,1,3,2020-05-23 18:05:29,2020-05-23 18:05:29
3211,-69,2.75,calibration,1,3,2020-05-23 18:05:29,2020-05-23 18:05:29
3212,-65,2.75,calibration,1,3,2020-05-23 18:05:29,2020-05-23 18:05:29
3213,-64,2.75,calibration,1,3,2020-05-23 18:05:29,2020-05-23 18:05:29
3214,-69,2.75,calibration,1,3,2020-05-23 18:05:29,2020-05-23 18:05:29
3215,-65,2.75,calibration,1,3,2020-05-23 18:05:29,2020-05-23 18:05:29
3216,-62,2.75,calibration,1,3,2020-05-23 18:05:29,2020-05-23 18:05:29
3217,-65,2.75,calibration,1,3,2020-05-23 18:05:29,2020-05-23 18:05:29
3218,-62,2.75,calibration,1,3,2020-05-23 18:05:29,2020-05-23 18:05:29
3219,-65,2.75,calibration,1,3,2020-05-23 18:05:29,2020-05-23 18:05:29
3220,-69,2.75,calibration,1,3,2020-05-23 18:05:29,2020-05-23 18:05:29
3221,-70,2.75,calibration,1,3,2020-05-23 18:05:29,2020-05-23 18:05:29
3222,-63,2.75,calibration,1,3,2020-05-23 18:05:29,2020-05-23 18:05:29
3223,-65,2.75,calibration,1,3,2020-05-23 18:05:29,2020-05-23 18:05:29
3224,-64,2.75,calibration,1,3,2020-05-23 18:05:29,2020-05-23 18:05:29
4379,-61,2.75,calibration,1,4,2020-05-23 18:11:55,2020-05-23 18:11:55
4380,-79,2.75,calibration,1,4,2020-05-23 18:11:55,2020-05-23 18:11:55
4381,-62,2.75,calibration,1,4,2020-05-23 18:11:55,2020-05-23 18:11:55
4382,-62,2.75,calibration,1,4,2020-05-23 18:11:55,2020-05-23 18:11:55
4383,-62,2.75,calibration,1,4,2020-05-23 18:11:55,2020-05-23 18:11:55
4384,-62,2.75,calibration,1,4,2020-05-23 18:11:55,2020-05-23 18:11:55
4385,-60,2.75,calibration,1,4,2020-05-23 18:11:55,2020-05-23 18:11:55
4386,-75,2.75,calibration,1,4,2020-05-23 18:11:55,2020-05-23 18:11:55
4387,-61,2.75,calibration,1,4,2020-05-23 18:11:55,2020-05-23 18:11:55
4388,-78,2.75,calibration,1,4,2020-05-23 18:11:55,2020-05-23 18:11:55
4389,-59,2.75,calibration,1,4,2020-05-23 18:11:55,2020-05-23 18:11:55
4390,-78,2.75,calibration,1,4,2020-05-23 18:11:55,2020-05-23 18:11:55
4391,-62,2.75,calibration,1,4,2020-05-23 18:11:55,2020-05-23 18:11:55
4392,-76,2.75,calibration,1,4,2020-05-23 18:11:55,2020-05-23 18:11:55
4393,-62,2.75,calibration,1,4,2020-05-23 18:11:55,2020-05-23 18:11:55
4394,-60,2.75,calibration,1,4,2020-05-23 18:11:55,2020-05-23 18:11:55
4395,-63,2.75,calibration,1,4,2020-05-23 18:11:55,2020-05-23 18:11:55
4396,-78,2.75,calibration,1,4,2020-05-23 18:11:55,2020-05-23 18:11:55
4397,-62,2.75,calibration,1,4,2020-05-23 18:11:55,2020-05-23 18:11:55
4398,-59,2.75,calibration,1,4,2020-05-23 18:11:55,2020-05-23 18:11:55
4399,-75,2.75,calibration,1,4,2020-05-23 18:11:55,2020-05-23 18:11:55
4400,-62,2.75,calibration,1,4,2020-05-23 18:11:55,2020-05-23 18:11:55
4401,-61,2.75,calibration,1,4,2020-05-23 18:11:55,2020-05-23 18:11:55
4402,-79,2.75,calibration,1,4,2020-05-23 18:11:55,2020-05-23 18:11:55
4403,-77,2.75,calibration,1,4,2020-05-23 18:11:55,2020-05-23 18:11:55
4404,-60,2.75,calibration,1,4,2020-05-23 18:11:55,2020-05-23 18:11:55
4405,-76,2.75,calibration,1,4,2020-05-23 18:11:55,2020-05-23 18:11:55
4406,-77,2.75,calibration,1,4,2020-05-23 18:11:55,2020-05-23 18:11:55
4407,-77,2.75,calibration,1,4,2020-05-23 18:11:55,2020-05-23 18:11:55
4408,-61,2.75,calibration,1,4,2020-05-23 18:11:55,2020-05-23 18:11:55
4409,-75,2.75,calibration,1,4,2020-05-23 18:11:55,2020-05-23 18:11:55
4410,-63,2.75,calibration,1,4,2020-05-23 18:11:55,2020-05-23 18:11:55
4411,-75,2.75,calibration,1,4,2020-05-23 18:11:55,2020-05-23 18:11:55
4412,-61,2.75,calibration,1,4,2020-05-23 18:11:55,2020-05-23 18:11:55
4413,-62,2.75,calibration,1,4,2020-05-23 18:11:55,2020-05-23 18:11:55
4414,-59,2.75,calibration,1,4,2020-05-23 18:11:55,2020-05-23 18:11:55
4415,-62,2.75,calibration,1,4,2020-05-23 18:11:55,2020-05-23 18:11:55
4416,-63,2.75,calibration,1,4,2020-05-23 18:11:55,2020-05-23 18:11:55
4417,-60,2.75,calibration,1,4,2020-05-23 18:11:55,2020-05-23 18:11:55
4418,-62,2.75,calibration,1,4,2020-05-23 18:11:55,2020-05-23 18:11:55
4419,-76,2.75,calibration,1,4,2020-05-23 18:11:55,2020-05-23 18:11:55
4420,-62,2.75,calibration,1,4,2020-05-23 18:11:55,2020-05-23 18:11:55
4421,-76,2.75,calibration,1,4,2020-05-23 18:11:55,2020-05-23 18:11:55
4422,-63,2.75,calibration,1,4,2020-05-23 18:11:55,2020-05-23 18:11:55
4423,-60,2.75,calibration,1,4,2020-05-23 18:11:55,2020-05-23 18:11:55
4424,-63,2.75,calibration,1,4,2020-05-23 18:11:55,2020-05-23 18:11:55
4425,-75,2.75,calibration,1,4,2020-05-23 18:11:55,2020-05-23 18:11:55
4426,-60,2.75,calibration,1,4,2020-05-23 18:11:55,2020-05-23 18:11:55
4427,-63,2.75,calibration,1,4,2020-05-23 18:11:55,2020-05-23 18:11:55
4428,-62,2.75,calibration,1,4,2020-05-23 18:11:55,2020-05-23 18:11:55
4429,-76,2.75,calibration,1,4,2020-05-23 18:11:55,2020-05-23 18:11:55
4430,-62,2.75,calibration,1,4,2020-05-23 18:11:55,2020-05-23 18:11:55
4431,-61,2.75,calibration,1,4,2020-05-23 18:11:55,2020-05-23 18:11:55
4432,-62,2.75,calibration,1,4,2020-05-23 18:11:55,2020-05-23 18:11:55
4433,-62,2.75,calibration,1,4,2020-05-23 18:11:55,2020-05-23 18:11:55
4434,-60,2.75,calibration,1,4,2020-05-23 18:11:55,2020-05-23 18:11:55
4435,-60,2.75,calibration,1,4,2020-05-23 18:11:55,2020-05-23 18:11:55
4436,-61,2.75,calibration,1,4,2020-05-23 18:11:55,2020-05-23 18:11:55
4437,-73,2.75,calibration,1,4,2020-05-23 18:11:55,2020-05-23 18:11:55
4438,-73,2.75,calibration,1,4,2020-05-23 18:11:55,2020-05-23 18:11:55
4439,-62,2.75,calibration,1,4,2020-05-23 18:11:55,2020-05-23 18:11:55
4440,-73,2.75,calibration,1,4,2020-05-23 18:11:55,2020-05-23 18:11:55
4441,-73,2.75,calibration,1,4,2020-05-23 18:11:55,2020-05-23 18:11:55
5648,-57,2.75,calibration,1,5,2020-05-23 18:18:56,2020-05-23 18:18:56
5649,-59,2.75,calibration,1,5,2020-05-23 18:18:56,2020-05-23 18:18:56
5650,-62,2.75,calibration,1,5,2020-05-23 18:18:56,2020-05-23 18:18:56
5651,-60,2.75,calibration,1,5,2020-05-23 18:18:56,2020-05-23 18:18:56
5652,-59,2.75,calibration,1,5,2020-05-23 18:18:56,2020-05-23 18:18:56
5653,-69,2.75,calibration,1,5,2020-05-23 18:18:56,2020-05-23 18:18:56
5654,-59,2.75,calibration,1,5,2020-05-23 18:18:56,2020-05-23 18:18:56
5655,-68,2.75,calibration,1,5,2020-05-23 18:18:56,2020-05-23 18:18:56
5656,-59,2.75,calibration,1,5,2020-05-23 18:18:56,2020-05-23 18:18:56
5657,-60,2.75,calibration,1,5,2020-05-23 18:18:56,2020-05-23 18:18:56
5658,-61,2.75,calibration,1,5,2020-05-23 18:18:56,2020-05-23 18:18:56
5659,-59,2.75,calibration,1,5,2020-05-23 18:18:56,2020-05-23 18:18:56
5660,-72,2.75,calibration,1,5,2020-05-23 18:18:56,2020-05-23 18:18:56
5661,-58,2.75,calibration,1,5,2020-05-23 18:18:56,2020-05-23 18:18:56
5662,-58,2.75,calibration,1,5,2020-05-23 18:18:56,2020-05-23 18:18:56
5663,-58,2.75,calibration,1,5,2020-05-23 18:18:56,2020-05-23 18:18:56
5664,-60,2.75,calibration,1,5,2020-05-23 18:18:56,2020-05-23 18:18:56
5665,-62,2.75,calibration,1,5,2020-05-23 18:18:56,2020-05-23 18:18:56
5666,-60,2.75,calibration,1,5,2020-05-23 18:18:56,2020-05-23 18:18:56
5667,-60,2.75,calibration,1,5,2020-05-23 18:18:56,2020-05-23 18:18:56
5668,-58,2.75,calibration,1,5,2020-05-23 18:18:56,2020-05-23 18:18:56
5669,-60,2.75,calibration,1,5,2020-05-23 18:18:56,2020-05-23 18:18:56
5670,-71,2.75,calibration,1,5,2020-05-23 18:18:56,2020-05-23 18:18:56
5671,-59,2.75,calibration,1,5,2020-05-23 18:18:56,2020-05-23 18:18:56
5672,-71,2.75,calibration,1,5,2020-05-23 18:18:56,2020-05-23 18:18:56
5673,-59,2.75,calibration,1,5,2020-05-23 18:18:56,2020-05-23 18:18:56
5674,-60,2.75,calibration,1,5,2020-05-23 18:18:56,2020-05-23 18:18:56
5675,-59,2.75,calibration,1,5,2020-05-23 18:18:56,2020-05-23 18:18:56
5676,-70,2.75,calibration,1,5,2020-05-23 18:18:56,2020-05-23 18:18:56
5677,-59,2.75,calibration,1,5,2020-05-23 18:18:56,2020-05-23 18:18:56
5678,-59,2.75,calibration,1,5,2020-05-23 18:18:56,2020-05-23 18:18:56
5679,-59,2.75,calibration,1,5,2020-05-23 18:18:56,2020-05-23 18:18:56
5680,-70,2.75,calibration,1,5,2020-05-23 18:18:56,2020-05-23 18:18:56
5681,-59,2.75,calibration,1,5,2020-05-23 18:18:56,2020-05-23 18:18:56
5682,-60,2.75,calibration,1,5,2020-05-23 18:18:56,2020-05-23 18:18:56
5683,-57,2.75,calibration,1,5,2020-05-23 18:18:56,2020-05-23 18:18:56
5684,-58,2.75,calibration,1,5,2020-05-23 18:18:56,2020-05-23 18:18:56
5685,-60,2.75,calibration,1,5,2020-05-23 18:18:56,2020-05-23 18:18:56
5686,-60,2.75,calibration,1,5,2020-05-23 18:18:56,2020-05-23 18:18:56
5687,-59,2.75,calibration,1,5,2020-05-23 18:18:56,2020-05-23 18:18:56
5688,-70,2.75,calibration,1,5,2020-05-23 18:18:56,2020-05-23 18:18:56
5689,-60,2.75,calibration,1,5,2020-05-23 18:18:56,2020-05-23 18:18:56
5690,-60,2.75,calibration,1,5,2020-05-23 18:18:56,2020-05-23 18:18:56
5691,-61,2.75,calibration,1,5,2020-05-23 18:18:56,2020-05-23 18:18:56
5692,-60,2.75,calibration,1,5,2020-05-23 18:18:56,2020-05-23 18:18:56
5693,-71,2.75,calibration,1,5,2020-05-23 18:18:56,2020-05-23 18:18:56
5694,-71,2.75,calibration,1,5,2020-05-23 18:18:56,2020-05-23 18:18:56
5695,-61,2.75,calibration,1,5,2020-05-23 18:18:56,2020-05-23 18:18:56
5696,-59,2.75,calibration,1,5,2020-05-23 18:18:56,2020-05-23 18:18:56