mvavgclient   1592747568176   -69.544109583044
mvavgclient   1592747568135   -70.036387955701
mvavgclient   1592747568085   -70.378160040033
mvavgclient   1592747566885   -70.753089489677
mvavgclient   1592747566372   -71.134547349776
mvavgclient   1592747564537   -70.797421170894
mvavgclient   1592747563339   -75.796869253511
mvavgclient   1592747563285   -75.796869253511
mvavgclient   1592747562772   -75.527939265076
mvavgclient   1592747562686   -75.756229656279
mvavgclient   1592747562126   -75.804940148212
mvavgclient   1592747560977   -75.970925567855
mvavgclient   1592747560937   -75.907322971053
mvavgclient   1592747560885   -76.157063290144
mvavgclient   1592747560371   -76.210512631389
mvavgclient   1592747560328   -76.210512631389
mvavgclient   1592747559776   -77.883393140348
mvavgclient   1592747559735   -77.76407975369
mvavgclient   1592747557373   -74.807158674137
mvavgclient   1592747557330   -75.237026639278
mvavgclient   1592747557285   -75.342537388517
mvavgclient   1592747556727   -75.342537388517
mvavgclient   1592747555531   -74.621205440238
mvavgclient   1592747554973   -74.621205440238
mvavgclient   1592747554928   -74.782688182334
mvavgclient   1592747554885   -74.696111490867
mvavgclient   1592747554331   -72.883621471153
mvavgclient   1592747553736   -71.663566660448
mvavgclient   1592747553129   -71.629827303661
mvavgclient   1592747553085   -72.922046230371
mvavgclient   1592747552528   -72.455996255719
mvavgclient   1592747551937   -72.40139584232
mvavgclient   1592747551372   -72.151169937839
mvavgclient   1592747551329   -72.468605932664
mvavgclient   1592747551285   -72.581384362269
mvavgclient   1592747550770   -72.524495191491
mvavgclient   1592747549531   -71.412058774148
mvavgclient   1592747549485   -72.230087555298
mvavgclient   1592747548931   -73.650995566466
mvavgclient   1592747548885   -73.613602175754
mvavgclient   1592747548372   -73.622964734661
mvavgclient   1592747548329   -74.081009847712
mvavgclient   1592747547775   -74.223292564914
mvavgclient   1592747545976   -74.773381490074
mvavgclient   1592747545930   -69.82601272349
mvavgclient   1592747545885   -69.386591368419
mvavgclient   1592747545338   -69.352606314581
mvavgclient   1592747545285   -70.027130498105
mvavgclient   1592747544778   -70.120638386157
mvavgclient   1592747544737   -70.083170663362
mvavgclient   1592747544734   -70.036456619592
mvavgclient   1592747544085   -69.896096766874
mvavgclient   1592747542928   -69.957331382517
mvavgclient   1592747542885   -69.867856971365
mvavgclient   1592747542332   -69.301831097466
mvavgclient   1592747542286   -73.231957312108
mvavgclient   1592747541136   -74.360335621088
mvavgclient   1592747541085   -74.360335621088
mvavgclient   1592747540531   -74.005933707655
mvavgclient   1592747539936   -71.406889430848
mvavgclient   1592747539376   -71.272525527029
mvavgclient   1592747538778   -71.175726320922
mvavgclient   1592747538737   -71.279740403455
mvavgclient   1592747538685   -71.258040644862
mvavgclient   1592747538129   -71.285376738535
mvavgclient   1592747538086   -69.30580963891
mvavgclient   1592747537533   -68.203312633437
mvavgclient   1592747537485   -68.186950418928
mvavgclient   1592747536375   -68.173535426824
mvavgclient   1592747536328   -68.263306716191
mvavgclient   1592747536285   -67.323920373368
mvavgclient   1592747535731   -67.397604531137
mvavgclient   1592747534485   -64.926901235274
mvavgclient   1592747533930   -64.912597714733
mvavgclient   1592747533885   -64.924793186034
mvavgclient   1592747532729   -64.918458445302
mvavgclient   1592747532688   -65.74625104444
mvavgclient   1592747532173   -65.969720863574
mvavgclient   1592747532085   -65.927438491843
mvavgclient   1592747531485   -65.774397400238
mvavgclient   1592747530336   -65.774397400238
mvavgclient   1592747530285   -65.477849879132
mvavgclient   1592747529777   -64.285850383735
mvavgclient   1592747529729   -66.390743053101
mvavgclient   1592747529695   -66.431658047645
mvavgclient   1592747529175   -66.38021164717
mvavgclient   1592747529137   -66.389083840579
mvavgclient   1592747529133   -65.442687821161
mvavgclient   1592747527285   -64.947052602123
mvavgclient   1592747526686   -64.986536195898
