mvavgclient   1592638166560   -60.303639514438
mvavgclient   1592638166242   -59.960299378034
mvavgclient   1592638166191   -60.572248450904
mvavgclient   1592638165851   -61.735747159871
mvavgclient   1592638165113   -59.796905808598
mvavgclient   1592638165067   -59.796905808598
mvavgclient   1592638164935   -59.38970770854
mvavgclient   1592638164804   -59.50299709597
mvavgclient   1592638164754   -59.619321069275
mvavgclient   1592638164729   -60.049758856394
mvavgclient   1592638164671   -60.154414941118
mvavgclient   1592638164629   -60.796507692051
mvavgclient   1592638164581   -60.953929311754
mvavgclient   1592638164491   -60.429665123624
mvavgclient   1592638164411   -60.318248479795
mvavgclient   1592638164365   -60.318248479795
mvavgclient   1592638164322   -60.828422077699
mvavgclient   1592638164276   -60.675406631141
mvavgclient   1592638164186   -60.527599412772
mvavgclient   1592638164091   -60.527599412772
mvavgclient   1592638164052   -60.527599412772
mvavgclient   1592638163963   -60.413674800165
mvavgclient   1592638163919   -59.822239450337
mvavgclient   1592638163741   -59.700428739999
mvavgclient   1592638163654   -60.139404920977
mvavgclient   1592638163515   -60.246270817116
mvavgclient   1592638163463   -59.809204862084
mvavgclient   1592638163416   -59.400904582669
mvavgclient   1592638163323   -59.934149914356
mvavgclient   1592638163240   -60.062796343704
mvavgclient   1592638163195   -60.553753235091
mvavgclient   1592638163023   -60.073180352159
mvavgclient   1592638162980   -60.073180352159
mvavgclient   1592638162941   -60.702468716375
mvavgclient   1592638162896   -60.856457779472
mvavgclient   1592638162760   -60.343167927768
mvavgclient   1592638162724   -60.343167927768
